('/Users/evanblanc/Documents/Computer-Science/Projects/automousemover/build/autoMouseMover/autoMouseMover.pkg',
 {'BINARY': True,
  'DATA': True,
  'EXECUTABLE': True,
  'EXTENSION': True,
  'PYMODULE': True,
  'PYSOURCE': True,
  'PYZ': False,
  'SPLASH': True,
  'SYMLINK': False},
 [('pyi-contents-directory _internal', '', 'OPTION'),
  ('PYZ-00.pyz',
   '/Users/evanblanc/Documents/Computer-Science/Projects/automousemover/build/autoMouseMover/PYZ-00.pyz',
   'PYZ'),
  ('lib-dynload/_struct.cpython-311-darwin.so',
   '/usr/local/Cellar/python@3.11/3.11.7_1/Frameworks/Python.framework/Versions/3.11/lib/python3.11/lib-dynload/_struct.cpython-311-darwin.so',
   'EXTENSION'),
  ('lib-dynload/zlib.cpython-311-darwin.so',
   '/usr/local/Cellar/python@3.11/3.11.7_1/Frameworks/Python.framework/Versions/3.11/lib/python3.11/lib-dynload/zlib.cpython-311-darwin.so',
   'EXTENSION'),
  ('struct',
   '/Users/evanblanc/Documents/Computer-Science/Projects/automousemover/build/autoMouseMover/localpycs/struct.pyc',
   'PYMODULE'),
  ('pyimod01_archive',
   '/Users/evanblanc/Documents/Computer-Science/Projects/automousemover/build/autoMouseMover/localpycs/pyimod01_archive.pyc',
   'PYMODULE'),
  ('pyimod02_importers',
   '/Users/evanblanc/Documents/Computer-Science/Projects/automousemover/build/autoMouseMover/localpycs/pyimod02_importers.pyc',
   'PYMODULE'),
  ('pyimod03_ctypes',
   '/Users/evanblanc/Documents/Computer-Science/Projects/automousemover/build/autoMouseMover/localpycs/pyimod03_ctypes.pyc',
   'PYMODULE'),
  ('pyiboot01_bootstrap',
   '/Users/evanblanc/Documents/Computer-Science/Projects/automousemover/.venv/lib/python3.11/site-packages/PyInstaller/loader/pyiboot01_bootstrap.py',
   'PYSOURCE'),
  ('pyi_rth_inspect',
   '/Users/evanblanc/Documents/Computer-Science/Projects/automousemover/.venv/lib/python3.11/site-packages/PyInstaller/hooks/rthooks/pyi_rth_inspect.py',
   'PYSOURCE'),
  ('pyi_rth_pkgutil',
   '/Users/evanblanc/Documents/Computer-Science/Projects/automousemover/.venv/lib/python3.11/site-packages/PyInstaller/hooks/rthooks/pyi_rth_pkgutil.py',
   'PYSOURCE'),
  ('pyi_rth_multiprocessing',
   '/Users/evanblanc/Documents/Computer-Science/Projects/automousemover/.venv/lib/python3.11/site-packages/PyInstaller/hooks/rthooks/pyi_rth_multiprocessing.py',
   'PYSOURCE'),
  ('pyi_rth_pkgres',
   '/Users/evanblanc/Documents/Computer-Science/Projects/automousemover/.venv/lib/python3.11/site-packages/PyInstaller/hooks/rthooks/pyi_rth_pkgres.py',
   'PYSOURCE'),
  ('pyi_rth__tkinter',
   '/Users/evanblanc/Documents/Computer-Science/Projects/automousemover/.venv/lib/python3.11/site-packages/PyInstaller/hooks/rthooks/pyi_rth__tkinter.py',
   'PYSOURCE'),
  ('autoMouseMover',
   '/Users/evanblanc/Documents/Computer-Science/Projects/automousemover/autoMouseMover.py',
   'PYSOURCE')],
 'Python',
 True,
 False,
 False,
 [],
 'x86_64',
 None,
 None)
