('/Users/evanblanc/Documents/Computer-Science/Projects/automousemover/build/autoMouseMover/PYZ-00.pyz',
 [('AppKit',
   '/Users/evanblanc/Documents/Computer-Science/Projects/automousemover/.venv/lib/python3.11/site-packages/AppKit/__init__.py',
   'PYMODULE'),
  ('AppKit._metadata',
   '/Users/evanblanc/Documents/Computer-Science/Projects/automousemover/.venv/lib/python3.11/site-packages/AppKit/_metadata.py',
   'PYMODULE'),
  ('AppKit._nsapp',
   '/Users/evanblanc/Documents/Computer-Science/Projects/automousemover/.venv/lib/python3.11/site-packages/AppKit/_nsapp.py',
   'PYMODULE'),
  ('CoreFoundation',
   '/Users/evanblanc/Documents/Computer-Science/Projects/automousemover/.venv/lib/python3.11/site-packages/CoreFoundation/__init__.py',
   'PYMODULE'),
  ('CoreFoundation._metadata',
   '/Users/evanblanc/Documents/Computer-Science/Projects/automousemover/.venv/lib/python3.11/site-packages/CoreFoundation/_metadata.py',
   'PYMODULE'),
  ('CoreFoundation._static',
   '/Users/evanblanc/Documents/Computer-Science/Projects/automousemover/.venv/lib/python3.11/site-packages/CoreFoundation/_static.py',
   'PYMODULE'),
  ('Foundation',
   '/Users/evanblanc/Documents/Computer-Science/Projects/automousemover/.venv/lib/python3.11/site-packages/Foundation/__init__.py',
   'PYMODULE'),
  ('Foundation._context',
   '/Users/evanblanc/Documents/Computer-Science/Projects/automousemover/.venv/lib/python3.11/site-packages/Foundation/_context.py',
   'PYMODULE'),
  ('Foundation._functiondefines',
   '/Users/evanblanc/Documents/Computer-Science/Projects/automousemover/.venv/lib/python3.11/site-packages/Foundation/_functiondefines.py',
   'PYMODULE'),
  ('Foundation._metadata',
   '/Users/evanblanc/Documents/Computer-Science/Projects/automousemover/.venv/lib/python3.11/site-packages/Foundation/_metadata.py',
   'PYMODULE'),
  ('Foundation._nsindexset',
   '/Users/evanblanc/Documents/Computer-Science/Projects/automousemover/.venv/lib/python3.11/site-packages/Foundation/_nsindexset.py',
   'PYMODULE'),
  ('Foundation._nsobject',
   '/Users/evanblanc/Documents/Computer-Science/Projects/automousemover/.venv/lib/python3.11/site-packages/Foundation/_nsobject.py',
   'PYMODULE'),
  ('Foundation._nsurl',
   '/Users/evanblanc/Documents/Computer-Science/Projects/automousemover/.venv/lib/python3.11/site-packages/Foundation/_nsurl.py',
   'PYMODULE'),
  ('PIL',
   '/Users/evanblanc/Documents/Computer-Science/Projects/automousemover/.venv/lib/python3.11/site-packages/PIL/__init__.py',
   'PYMODULE'),
  ('PIL.BlpImagePlugin',
   '/Users/evanblanc/Documents/Computer-Science/Projects/automousemover/.venv/lib/python3.11/site-packages/PIL/BlpImagePlugin.py',
   'PYMODULE'),
  ('PIL.BmpImagePlugin',
   '/Users/evanblanc/Documents/Computer-Science/Projects/automousemover/.venv/lib/python3.11/site-packages/PIL/BmpImagePlugin.py',
   'PYMODULE'),
  ('PIL.BufrStubImagePlugin',
   '/Users/evanblanc/Documents/Computer-Science/Projects/automousemover/.venv/lib/python3.11/site-packages/PIL/BufrStubImagePlugin.py',
   'PYMODULE'),
  ('PIL.CurImagePlugin',
   '/Users/evanblanc/Documents/Computer-Science/Projects/automousemover/.venv/lib/python3.11/site-packages/PIL/CurImagePlugin.py',
   'PYMODULE'),
  ('PIL.DcxImagePlugin',
   '/Users/evanblanc/Documents/Computer-Science/Projects/automousemover/.venv/lib/python3.11/site-packages/PIL/DcxImagePlugin.py',
   'PYMODULE'),
  ('PIL.DdsImagePlugin',
   '/Users/evanblanc/Documents/Computer-Science/Projects/automousemover/.venv/lib/python3.11/site-packages/PIL/DdsImagePlugin.py',
   'PYMODULE'),
  ('PIL.EpsImagePlugin',
   '/Users/evanblanc/Documents/Computer-Science/Projects/automousemover/.venv/lib/python3.11/site-packages/PIL/EpsImagePlugin.py',
   'PYMODULE'),
  ('PIL.ExifTags',
   '/Users/evanblanc/Documents/Computer-Science/Projects/automousemover/.venv/lib/python3.11/site-packages/PIL/ExifTags.py',
   'PYMODULE'),
  ('PIL.FitsImagePlugin',
   '/Users/evanblanc/Documents/Computer-Science/Projects/automousemover/.venv/lib/python3.11/site-packages/PIL/FitsImagePlugin.py',
   'PYMODULE'),
  ('PIL.FliImagePlugin',
   '/Users/evanblanc/Documents/Computer-Science/Projects/automousemover/.venv/lib/python3.11/site-packages/PIL/FliImagePlugin.py',
   'PYMODULE'),
  ('PIL.FpxImagePlugin',
   '/Users/evanblanc/Documents/Computer-Science/Projects/automousemover/.venv/lib/python3.11/site-packages/PIL/FpxImagePlugin.py',
   'PYMODULE'),
  ('PIL.FtexImagePlugin',
   '/Users/evanblanc/Documents/Computer-Science/Projects/automousemover/.venv/lib/python3.11/site-packages/PIL/FtexImagePlugin.py',
   'PYMODULE'),
  ('PIL.GbrImagePlugin',
   '/Users/evanblanc/Documents/Computer-Science/Projects/automousemover/.venv/lib/python3.11/site-packages/PIL/GbrImagePlugin.py',
   'PYMODULE'),
  ('PIL.GifImagePlugin',
   '/Users/evanblanc/Documents/Computer-Science/Projects/automousemover/.venv/lib/python3.11/site-packages/PIL/GifImagePlugin.py',
   'PYMODULE'),
  ('PIL.GimpGradientFile',
   '/Users/evanblanc/Documents/Computer-Science/Projects/automousemover/.venv/lib/python3.11/site-packages/PIL/GimpGradientFile.py',
   'PYMODULE'),
  ('PIL.GimpPaletteFile',
   '/Users/evanblanc/Documents/Computer-Science/Projects/automousemover/.venv/lib/python3.11/site-packages/PIL/GimpPaletteFile.py',
   'PYMODULE'),
  ('PIL.GribStubImagePlugin',
   '/Users/evanblanc/Documents/Computer-Science/Projects/automousemover/.venv/lib/python3.11/site-packages/PIL/GribStubImagePlugin.py',
   'PYMODULE'),
  ('PIL.Hdf5StubImagePlugin',
   '/Users/evanblanc/Documents/Computer-Science/Projects/automousemover/.venv/lib/python3.11/site-packages/PIL/Hdf5StubImagePlugin.py',
   'PYMODULE'),
  ('PIL.IcnsImagePlugin',
   '/Users/evanblanc/Documents/Computer-Science/Projects/automousemover/.venv/lib/python3.11/site-packages/PIL/IcnsImagePlugin.py',
   'PYMODULE'),
  ('PIL.IcoImagePlugin',
   '/Users/evanblanc/Documents/Computer-Science/Projects/automousemover/.venv/lib/python3.11/site-packages/PIL/IcoImagePlugin.py',
   'PYMODULE'),
  ('PIL.ImImagePlugin',
   '/Users/evanblanc/Documents/Computer-Science/Projects/automousemover/.venv/lib/python3.11/site-packages/PIL/ImImagePlugin.py',
   'PYMODULE'),
  ('PIL.Image',
   '/Users/evanblanc/Documents/Computer-Science/Projects/automousemover/.venv/lib/python3.11/site-packages/PIL/Image.py',
   'PYMODULE'),
  ('PIL.ImageChops',
   '/Users/evanblanc/Documents/Computer-Science/Projects/automousemover/.venv/lib/python3.11/site-packages/PIL/ImageChops.py',
   'PYMODULE'),
  ('PIL.ImageCms',
   '/Users/evanblanc/Documents/Computer-Science/Projects/automousemover/.venv/lib/python3.11/site-packages/PIL/ImageCms.py',
   'PYMODULE'),
  ('PIL.ImageColor',
   '/Users/evanblanc/Documents/Computer-Science/Projects/automousemover/.venv/lib/python3.11/site-packages/PIL/ImageColor.py',
   'PYMODULE'),
  ('PIL.ImageDraw',
   '/Users/evanblanc/Documents/Computer-Science/Projects/automousemover/.venv/lib/python3.11/site-packages/PIL/ImageDraw.py',
   'PYMODULE'),
  ('PIL.ImageDraw2',
   '/Users/evanblanc/Documents/Computer-Science/Projects/automousemover/.venv/lib/python3.11/site-packages/PIL/ImageDraw2.py',
   'PYMODULE'),
  ('PIL.ImageFile',
   '/Users/evanblanc/Documents/Computer-Science/Projects/automousemover/.venv/lib/python3.11/site-packages/PIL/ImageFile.py',
   'PYMODULE'),
  ('PIL.ImageFilter',
   '/Users/evanblanc/Documents/Computer-Science/Projects/automousemover/.venv/lib/python3.11/site-packages/PIL/ImageFilter.py',
   'PYMODULE'),
  ('PIL.ImageFont',
   '/Users/evanblanc/Documents/Computer-Science/Projects/automousemover/.venv/lib/python3.11/site-packages/PIL/ImageFont.py',
   'PYMODULE'),
  ('PIL.ImageGrab',
   '/Users/evanblanc/Documents/Computer-Science/Projects/automousemover/.venv/lib/python3.11/site-packages/PIL/ImageGrab.py',
   'PYMODULE'),
  ('PIL.ImageMath',
   '/Users/evanblanc/Documents/Computer-Science/Projects/automousemover/.venv/lib/python3.11/site-packages/PIL/ImageMath.py',
   'PYMODULE'),
  ('PIL.ImageMode',
   '/Users/evanblanc/Documents/Computer-Science/Projects/automousemover/.venv/lib/python3.11/site-packages/PIL/ImageMode.py',
   'PYMODULE'),
  ('PIL.ImageOps',
   '/Users/evanblanc/Documents/Computer-Science/Projects/automousemover/.venv/lib/python3.11/site-packages/PIL/ImageOps.py',
   'PYMODULE'),
  ('PIL.ImagePalette',
   '/Users/evanblanc/Documents/Computer-Science/Projects/automousemover/.venv/lib/python3.11/site-packages/PIL/ImagePalette.py',
   'PYMODULE'),
  ('PIL.ImagePath',
   '/Users/evanblanc/Documents/Computer-Science/Projects/automousemover/.venv/lib/python3.11/site-packages/PIL/ImagePath.py',
   'PYMODULE'),
  ('PIL.ImageQt',
   '/Users/evanblanc/Documents/Computer-Science/Projects/automousemover/.venv/lib/python3.11/site-packages/PIL/ImageQt.py',
   'PYMODULE'),
  ('PIL.ImageSequence',
   '/Users/evanblanc/Documents/Computer-Science/Projects/automousemover/.venv/lib/python3.11/site-packages/PIL/ImageSequence.py',
   'PYMODULE'),
  ('PIL.ImageShow',
   '/Users/evanblanc/Documents/Computer-Science/Projects/automousemover/.venv/lib/python3.11/site-packages/PIL/ImageShow.py',
   'PYMODULE'),
  ('PIL.ImageTk',
   '/Users/evanblanc/Documents/Computer-Science/Projects/automousemover/.venv/lib/python3.11/site-packages/PIL/ImageTk.py',
   'PYMODULE'),
  ('PIL.ImageWin',
   '/Users/evanblanc/Documents/Computer-Science/Projects/automousemover/.venv/lib/python3.11/site-packages/PIL/ImageWin.py',
   'PYMODULE'),
  ('PIL.ImtImagePlugin',
   '/Users/evanblanc/Documents/Computer-Science/Projects/automousemover/.venv/lib/python3.11/site-packages/PIL/ImtImagePlugin.py',
   'PYMODULE'),
  ('PIL.IptcImagePlugin',
   '/Users/evanblanc/Documents/Computer-Science/Projects/automousemover/.venv/lib/python3.11/site-packages/PIL/IptcImagePlugin.py',
   'PYMODULE'),
  ('PIL.Jpeg2KImagePlugin',
   '/Users/evanblanc/Documents/Computer-Science/Projects/automousemover/.venv/lib/python3.11/site-packages/PIL/Jpeg2KImagePlugin.py',
   'PYMODULE'),
  ('PIL.JpegImagePlugin',
   '/Users/evanblanc/Documents/Computer-Science/Projects/automousemover/.venv/lib/python3.11/site-packages/PIL/JpegImagePlugin.py',
   'PYMODULE'),
  ('PIL.JpegPresets',
   '/Users/evanblanc/Documents/Computer-Science/Projects/automousemover/.venv/lib/python3.11/site-packages/PIL/JpegPresets.py',
   'PYMODULE'),
  ('PIL.McIdasImagePlugin',
   '/Users/evanblanc/Documents/Computer-Science/Projects/automousemover/.venv/lib/python3.11/site-packages/PIL/McIdasImagePlugin.py',
   'PYMODULE'),
  ('PIL.MicImagePlugin',
   '/Users/evanblanc/Documents/Computer-Science/Projects/automousemover/.venv/lib/python3.11/site-packages/PIL/MicImagePlugin.py',
   'PYMODULE'),
  ('PIL.MpegImagePlugin',
   '/Users/evanblanc/Documents/Computer-Science/Projects/automousemover/.venv/lib/python3.11/site-packages/PIL/MpegImagePlugin.py',
   'PYMODULE'),
  ('PIL.MpoImagePlugin',
   '/Users/evanblanc/Documents/Computer-Science/Projects/automousemover/.venv/lib/python3.11/site-packages/PIL/MpoImagePlugin.py',
   'PYMODULE'),
  ('PIL.MspImagePlugin',
   '/Users/evanblanc/Documents/Computer-Science/Projects/automousemover/.venv/lib/python3.11/site-packages/PIL/MspImagePlugin.py',
   'PYMODULE'),
  ('PIL.PaletteFile',
   '/Users/evanblanc/Documents/Computer-Science/Projects/automousemover/.venv/lib/python3.11/site-packages/PIL/PaletteFile.py',
   'PYMODULE'),
  ('PIL.PalmImagePlugin',
   '/Users/evanblanc/Documents/Computer-Science/Projects/automousemover/.venv/lib/python3.11/site-packages/PIL/PalmImagePlugin.py',
   'PYMODULE'),
  ('PIL.PcdImagePlugin',
   '/Users/evanblanc/Documents/Computer-Science/Projects/automousemover/.venv/lib/python3.11/site-packages/PIL/PcdImagePlugin.py',
   'PYMODULE'),
  ('PIL.PcxImagePlugin',
   '/Users/evanblanc/Documents/Computer-Science/Projects/automousemover/.venv/lib/python3.11/site-packages/PIL/PcxImagePlugin.py',
   'PYMODULE'),
  ('PIL.PdfImagePlugin',
   '/Users/evanblanc/Documents/Computer-Science/Projects/automousemover/.venv/lib/python3.11/site-packages/PIL/PdfImagePlugin.py',
   'PYMODULE'),
  ('PIL.PdfParser',
   '/Users/evanblanc/Documents/Computer-Science/Projects/automousemover/.venv/lib/python3.11/site-packages/PIL/PdfParser.py',
   'PYMODULE'),
  ('PIL.PixarImagePlugin',
   '/Users/evanblanc/Documents/Computer-Science/Projects/automousemover/.venv/lib/python3.11/site-packages/PIL/PixarImagePlugin.py',
   'PYMODULE'),
  ('PIL.PngImagePlugin',
   '/Users/evanblanc/Documents/Computer-Science/Projects/automousemover/.venv/lib/python3.11/site-packages/PIL/PngImagePlugin.py',
   'PYMODULE'),
  ('PIL.PpmImagePlugin',
   '/Users/evanblanc/Documents/Computer-Science/Projects/automousemover/.venv/lib/python3.11/site-packages/PIL/PpmImagePlugin.py',
   'PYMODULE'),
  ('PIL.PsdImagePlugin',
   '/Users/evanblanc/Documents/Computer-Science/Projects/automousemover/.venv/lib/python3.11/site-packages/PIL/PsdImagePlugin.py',
   'PYMODULE'),
  ('PIL.PyAccess',
   '/Users/evanblanc/Documents/Computer-Science/Projects/automousemover/.venv/lib/python3.11/site-packages/PIL/PyAccess.py',
   'PYMODULE'),
  ('PIL.QoiImagePlugin',
   '/Users/evanblanc/Documents/Computer-Science/Projects/automousemover/.venv/lib/python3.11/site-packages/PIL/QoiImagePlugin.py',
   'PYMODULE'),
  ('PIL.SgiImagePlugin',
   '/Users/evanblanc/Documents/Computer-Science/Projects/automousemover/.venv/lib/python3.11/site-packages/PIL/SgiImagePlugin.py',
   'PYMODULE'),
  ('PIL.SpiderImagePlugin',
   '/Users/evanblanc/Documents/Computer-Science/Projects/automousemover/.venv/lib/python3.11/site-packages/PIL/SpiderImagePlugin.py',
   'PYMODULE'),
  ('PIL.SunImagePlugin',
   '/Users/evanblanc/Documents/Computer-Science/Projects/automousemover/.venv/lib/python3.11/site-packages/PIL/SunImagePlugin.py',
   'PYMODULE'),
  ('PIL.TgaImagePlugin',
   '/Users/evanblanc/Documents/Computer-Science/Projects/automousemover/.venv/lib/python3.11/site-packages/PIL/TgaImagePlugin.py',
   'PYMODULE'),
  ('PIL.TiffImagePlugin',
   '/Users/evanblanc/Documents/Computer-Science/Projects/automousemover/.venv/lib/python3.11/site-packages/PIL/TiffImagePlugin.py',
   'PYMODULE'),
  ('PIL.TiffTags',
   '/Users/evanblanc/Documents/Computer-Science/Projects/automousemover/.venv/lib/python3.11/site-packages/PIL/TiffTags.py',
   'PYMODULE'),
  ('PIL.WebPImagePlugin',
   '/Users/evanblanc/Documents/Computer-Science/Projects/automousemover/.venv/lib/python3.11/site-packages/PIL/WebPImagePlugin.py',
   'PYMODULE'),
  ('PIL.WmfImagePlugin',
   '/Users/evanblanc/Documents/Computer-Science/Projects/automousemover/.venv/lib/python3.11/site-packages/PIL/WmfImagePlugin.py',
   'PYMODULE'),
  ('PIL.XVThumbImagePlugin',
   '/Users/evanblanc/Documents/Computer-Science/Projects/automousemover/.venv/lib/python3.11/site-packages/PIL/XVThumbImagePlugin.py',
   'PYMODULE'),
  ('PIL.XbmImagePlugin',
   '/Users/evanblanc/Documents/Computer-Science/Projects/automousemover/.venv/lib/python3.11/site-packages/PIL/XbmImagePlugin.py',
   'PYMODULE'),
  ('PIL.XpmImagePlugin',
   '/Users/evanblanc/Documents/Computer-Science/Projects/automousemover/.venv/lib/python3.11/site-packages/PIL/XpmImagePlugin.py',
   'PYMODULE'),
  ('PIL._binary',
   '/Users/evanblanc/Documents/Computer-Science/Projects/automousemover/.venv/lib/python3.11/site-packages/PIL/_binary.py',
   'PYMODULE'),
  ('PIL._deprecate',
   '/Users/evanblanc/Documents/Computer-Science/Projects/automousemover/.venv/lib/python3.11/site-packages/PIL/_deprecate.py',
   'PYMODULE'),
  ('PIL._typing',
   '/Users/evanblanc/Documents/Computer-Science/Projects/automousemover/.venv/lib/python3.11/site-packages/PIL/_typing.py',
   'PYMODULE'),
  ('PIL._util',
   '/Users/evanblanc/Documents/Computer-Science/Projects/automousemover/.venv/lib/python3.11/site-packages/PIL/_util.py',
   'PYMODULE'),
  ('PIL._version',
   '/Users/evanblanc/Documents/Computer-Science/Projects/automousemover/.venv/lib/python3.11/site-packages/PIL/_version.py',
   'PYMODULE'),
  ('PIL.features',
   '/Users/evanblanc/Documents/Computer-Science/Projects/automousemover/.venv/lib/python3.11/site-packages/PIL/features.py',
   'PYMODULE'),
  ('PyObjCTools', '-', 'PYMODULE'),
  ('PyObjCTools.KeyValueCoding',
   '/Users/evanblanc/Documents/Computer-Science/Projects/automousemover/.venv/lib/python3.11/site-packages/PyObjCTools/KeyValueCoding.py',
   'PYMODULE'),
  ('Quartz',
   '/Users/evanblanc/Documents/Computer-Science/Projects/automousemover/.venv/lib/python3.11/site-packages/Quartz/__init__.py',
   'PYMODULE'),
  ('Quartz.CoreGraphics',
   '/Users/evanblanc/Documents/Computer-Science/Projects/automousemover/.venv/lib/python3.11/site-packages/Quartz/CoreGraphics/__init__.py',
   'PYMODULE'),
  ('Quartz.CoreGraphics._contextmanager',
   '/Users/evanblanc/Documents/Computer-Science/Projects/automousemover/.venv/lib/python3.11/site-packages/Quartz/CoreGraphics/_contextmanager.py',
   'PYMODULE'),
  ('Quartz.CoreGraphics._metadata',
   '/Users/evanblanc/Documents/Computer-Science/Projects/automousemover/.venv/lib/python3.11/site-packages/Quartz/CoreGraphics/_metadata.py',
   'PYMODULE'),
  ('Quartz.CoreVideo',
   '/Users/evanblanc/Documents/Computer-Science/Projects/automousemover/.venv/lib/python3.11/site-packages/Quartz/CoreVideo/__init__.py',
   'PYMODULE'),
  ('Quartz.CoreVideo._metadata',
   '/Users/evanblanc/Documents/Computer-Science/Projects/automousemover/.venv/lib/python3.11/site-packages/Quartz/CoreVideo/_metadata.py',
   'PYMODULE'),
  ('Quartz.ImageIO',
   '/Users/evanblanc/Documents/Computer-Science/Projects/automousemover/.venv/lib/python3.11/site-packages/Quartz/ImageIO/__init__.py',
   'PYMODULE'),
  ('Quartz.ImageIO._metadata',
   '/Users/evanblanc/Documents/Computer-Science/Projects/automousemover/.venv/lib/python3.11/site-packages/Quartz/ImageIO/_metadata.py',
   'PYMODULE'),
  ('Quartz.ImageKit',
   '/Users/evanblanc/Documents/Computer-Science/Projects/automousemover/.venv/lib/python3.11/site-packages/Quartz/ImageKit/__init__.py',
   'PYMODULE'),
  ('Quartz.ImageKit._metadata',
   '/Users/evanblanc/Documents/Computer-Science/Projects/automousemover/.venv/lib/python3.11/site-packages/Quartz/ImageKit/_metadata.py',
   'PYMODULE'),
  ('Quartz.PDFKit',
   '/Users/evanblanc/Documents/Computer-Science/Projects/automousemover/.venv/lib/python3.11/site-packages/Quartz/PDFKit/__init__.py',
   'PYMODULE'),
  ('Quartz.PDFKit._metadata',
   '/Users/evanblanc/Documents/Computer-Science/Projects/automousemover/.venv/lib/python3.11/site-packages/Quartz/PDFKit/_metadata.py',
   'PYMODULE'),
  ('Quartz.QuartzComposer',
   '/Users/evanblanc/Documents/Computer-Science/Projects/automousemover/.venv/lib/python3.11/site-packages/Quartz/QuartzComposer/__init__.py',
   'PYMODULE'),
  ('Quartz.QuartzComposer._metadata',
   '/Users/evanblanc/Documents/Computer-Science/Projects/automousemover/.venv/lib/python3.11/site-packages/Quartz/QuartzComposer/_metadata.py',
   'PYMODULE'),
  ('Quartz.QuartzCore',
   '/Users/evanblanc/Documents/Computer-Science/Projects/automousemover/.venv/lib/python3.11/site-packages/Quartz/QuartzCore/__init__.py',
   'PYMODULE'),
  ('Quartz.QuartzCore._metadata',
   '/Users/evanblanc/Documents/Computer-Science/Projects/automousemover/.venv/lib/python3.11/site-packages/Quartz/QuartzCore/_metadata.py',
   'PYMODULE'),
  ('Quartz.QuartzFilters',
   '/Users/evanblanc/Documents/Computer-Science/Projects/automousemover/.venv/lib/python3.11/site-packages/Quartz/QuartzFilters/__init__.py',
   'PYMODULE'),
  ('Quartz.QuartzFilters._metadata',
   '/Users/evanblanc/Documents/Computer-Science/Projects/automousemover/.venv/lib/python3.11/site-packages/Quartz/QuartzFilters/_metadata.py',
   'PYMODULE'),
  ('Quartz.QuickLookUI',
   '/Users/evanblanc/Documents/Computer-Science/Projects/automousemover/.venv/lib/python3.11/site-packages/Quartz/QuickLookUI/__init__.py',
   'PYMODULE'),
  ('Quartz.QuickLookUI._metadata',
   '/Users/evanblanc/Documents/Computer-Science/Projects/automousemover/.venv/lib/python3.11/site-packages/Quartz/QuickLookUI/_metadata.py',
   'PYMODULE'),
  ('__future__',
   '/usr/local/Cellar/python@3.11/3.11.7_1/Frameworks/Python.framework/Versions/3.11/lib/python3.11/__future__.py',
   'PYMODULE'),
  ('_aix_support',
   '/usr/local/Cellar/python@3.11/3.11.7_1/Frameworks/Python.framework/Versions/3.11/lib/python3.11/_aix_support.py',
   'PYMODULE'),
  ('_bootsubprocess',
   '/usr/local/Cellar/python@3.11/3.11.7_1/Frameworks/Python.framework/Versions/3.11/lib/python3.11/_bootsubprocess.py',
   'PYMODULE'),
  ('_compat_pickle',
   '/usr/local/Cellar/python@3.11/3.11.7_1/Frameworks/Python.framework/Versions/3.11/lib/python3.11/_compat_pickle.py',
   'PYMODULE'),
  ('_compression',
   '/usr/local/Cellar/python@3.11/3.11.7_1/Frameworks/Python.framework/Versions/3.11/lib/python3.11/_compression.py',
   'PYMODULE'),
  ('_osx_support',
   '/usr/local/Cellar/python@3.11/3.11.7_1/Frameworks/Python.framework/Versions/3.11/lib/python3.11/_osx_support.py',
   'PYMODULE'),
  ('_py_abc',
   '/usr/local/Cellar/python@3.11/3.11.7_1/Frameworks/Python.framework/Versions/3.11/lib/python3.11/_py_abc.py',
   'PYMODULE'),
  ('_pydecimal',
   '/usr/local/Cellar/python@3.11/3.11.7_1/Frameworks/Python.framework/Versions/3.11/lib/python3.11/_pydecimal.py',
   'PYMODULE'),
  ('_pyi_rth_utils',
   '/Users/evanblanc/Documents/Computer-Science/Projects/automousemover/.venv/lib/python3.11/site-packages/PyInstaller/fake-modules/_pyi_rth_utils/__init__.py',
   'PYMODULE'),
  ('_strptime',
   '/usr/local/Cellar/python@3.11/3.11.7_1/Frameworks/Python.framework/Versions/3.11/lib/python3.11/_strptime.py',
   'PYMODULE'),
  ('_sysconfigdata__darwin_darwin',
   '/usr/local/Cellar/python@3.11/3.11.7_1/Frameworks/Python.framework/Versions/3.11/lib/python3.11/_sysconfigdata__darwin_darwin.py',
   'PYMODULE'),
  ('_threading_local',
   '/usr/local/Cellar/python@3.11/3.11.7_1/Frameworks/Python.framework/Versions/3.11/lib/python3.11/_threading_local.py',
   'PYMODULE'),
  ('argparse',
   '/usr/local/Cellar/python@3.11/3.11.7_1/Frameworks/Python.framework/Versions/3.11/lib/python3.11/argparse.py',
   'PYMODULE'),
  ('ast',
   '/usr/local/Cellar/python@3.11/3.11.7_1/Frameworks/Python.framework/Versions/3.11/lib/python3.11/ast.py',
   'PYMODULE'),
  ('asyncio',
   '/usr/local/Cellar/python@3.11/3.11.7_1/Frameworks/Python.framework/Versions/3.11/lib/python3.11/asyncio/__init__.py',
   'PYMODULE'),
  ('asyncio.base_events',
   '/usr/local/Cellar/python@3.11/3.11.7_1/Frameworks/Python.framework/Versions/3.11/lib/python3.11/asyncio/base_events.py',
   'PYMODULE'),
  ('asyncio.base_futures',
   '/usr/local/Cellar/python@3.11/3.11.7_1/Frameworks/Python.framework/Versions/3.11/lib/python3.11/asyncio/base_futures.py',
   'PYMODULE'),
  ('asyncio.base_subprocess',
   '/usr/local/Cellar/python@3.11/3.11.7_1/Frameworks/Python.framework/Versions/3.11/lib/python3.11/asyncio/base_subprocess.py',
   'PYMODULE'),
  ('asyncio.base_tasks',
   '/usr/local/Cellar/python@3.11/3.11.7_1/Frameworks/Python.framework/Versions/3.11/lib/python3.11/asyncio/base_tasks.py',
   'PYMODULE'),
  ('asyncio.constants',
   '/usr/local/Cellar/python@3.11/3.11.7_1/Frameworks/Python.framework/Versions/3.11/lib/python3.11/asyncio/constants.py',
   'PYMODULE'),
  ('asyncio.coroutines',
   '/usr/local/Cellar/python@3.11/3.11.7_1/Frameworks/Python.framework/Versions/3.11/lib/python3.11/asyncio/coroutines.py',
   'PYMODULE'),
  ('asyncio.events',
   '/usr/local/Cellar/python@3.11/3.11.7_1/Frameworks/Python.framework/Versions/3.11/lib/python3.11/asyncio/events.py',
   'PYMODULE'),
  ('asyncio.exceptions',
   '/usr/local/Cellar/python@3.11/3.11.7_1/Frameworks/Python.framework/Versions/3.11/lib/python3.11/asyncio/exceptions.py',
   'PYMODULE'),
  ('asyncio.format_helpers',
   '/usr/local/Cellar/python@3.11/3.11.7_1/Frameworks/Python.framework/Versions/3.11/lib/python3.11/asyncio/format_helpers.py',
   'PYMODULE'),
  ('asyncio.futures',
   '/usr/local/Cellar/python@3.11/3.11.7_1/Frameworks/Python.framework/Versions/3.11/lib/python3.11/asyncio/futures.py',
   'PYMODULE'),
  ('asyncio.locks',
   '/usr/local/Cellar/python@3.11/3.11.7_1/Frameworks/Python.framework/Versions/3.11/lib/python3.11/asyncio/locks.py',
   'PYMODULE'),
  ('asyncio.log',
   '/usr/local/Cellar/python@3.11/3.11.7_1/Frameworks/Python.framework/Versions/3.11/lib/python3.11/asyncio/log.py',
   'PYMODULE'),
  ('asyncio.mixins',
   '/usr/local/Cellar/python@3.11/3.11.7_1/Frameworks/Python.framework/Versions/3.11/lib/python3.11/asyncio/mixins.py',
   'PYMODULE'),
  ('asyncio.proactor_events',
   '/usr/local/Cellar/python@3.11/3.11.7_1/Frameworks/Python.framework/Versions/3.11/lib/python3.11/asyncio/proactor_events.py',
   'PYMODULE'),
  ('asyncio.protocols',
   '/usr/local/Cellar/python@3.11/3.11.7_1/Frameworks/Python.framework/Versions/3.11/lib/python3.11/asyncio/protocols.py',
   'PYMODULE'),
  ('asyncio.queues',
   '/usr/local/Cellar/python@3.11/3.11.7_1/Frameworks/Python.framework/Versions/3.11/lib/python3.11/asyncio/queues.py',
   'PYMODULE'),
  ('asyncio.runners',
   '/usr/local/Cellar/python@3.11/3.11.7_1/Frameworks/Python.framework/Versions/3.11/lib/python3.11/asyncio/runners.py',
   'PYMODULE'),
  ('asyncio.selector_events',
   '/usr/local/Cellar/python@3.11/3.11.7_1/Frameworks/Python.framework/Versions/3.11/lib/python3.11/asyncio/selector_events.py',
   'PYMODULE'),
  ('asyncio.sslproto',
   '/usr/local/Cellar/python@3.11/3.11.7_1/Frameworks/Python.framework/Versions/3.11/lib/python3.11/asyncio/sslproto.py',
   'PYMODULE'),
  ('asyncio.staggered',
   '/usr/local/Cellar/python@3.11/3.11.7_1/Frameworks/Python.framework/Versions/3.11/lib/python3.11/asyncio/staggered.py',
   'PYMODULE'),
  ('asyncio.streams',
   '/usr/local/Cellar/python@3.11/3.11.7_1/Frameworks/Python.framework/Versions/3.11/lib/python3.11/asyncio/streams.py',
   'PYMODULE'),
  ('asyncio.subprocess',
   '/usr/local/Cellar/python@3.11/3.11.7_1/Frameworks/Python.framework/Versions/3.11/lib/python3.11/asyncio/subprocess.py',
   'PYMODULE'),
  ('asyncio.taskgroups',
   '/usr/local/Cellar/python@3.11/3.11.7_1/Frameworks/Python.framework/Versions/3.11/lib/python3.11/asyncio/taskgroups.py',
   'PYMODULE'),
  ('asyncio.tasks',
   '/usr/local/Cellar/python@3.11/3.11.7_1/Frameworks/Python.framework/Versions/3.11/lib/python3.11/asyncio/tasks.py',
   'PYMODULE'),
  ('asyncio.threads',
   '/usr/local/Cellar/python@3.11/3.11.7_1/Frameworks/Python.framework/Versions/3.11/lib/python3.11/asyncio/threads.py',
   'PYMODULE'),
  ('asyncio.timeouts',
   '/usr/local/Cellar/python@3.11/3.11.7_1/Frameworks/Python.framework/Versions/3.11/lib/python3.11/asyncio/timeouts.py',
   'PYMODULE'),
  ('asyncio.transports',
   '/usr/local/Cellar/python@3.11/3.11.7_1/Frameworks/Python.framework/Versions/3.11/lib/python3.11/asyncio/transports.py',
   'PYMODULE'),
  ('asyncio.trsock',
   '/usr/local/Cellar/python@3.11/3.11.7_1/Frameworks/Python.framework/Versions/3.11/lib/python3.11/asyncio/trsock.py',
   'PYMODULE'),
  ('asyncio.unix_events',
   '/usr/local/Cellar/python@3.11/3.11.7_1/Frameworks/Python.framework/Versions/3.11/lib/python3.11/asyncio/unix_events.py',
   'PYMODULE'),
  ('asyncio.windows_events',
   '/usr/local/Cellar/python@3.11/3.11.7_1/Frameworks/Python.framework/Versions/3.11/lib/python3.11/asyncio/windows_events.py',
   'PYMODULE'),
  ('asyncio.windows_utils',
   '/usr/local/Cellar/python@3.11/3.11.7_1/Frameworks/Python.framework/Versions/3.11/lib/python3.11/asyncio/windows_utils.py',
   'PYMODULE'),
  ('base64',
   '/usr/local/Cellar/python@3.11/3.11.7_1/Frameworks/Python.framework/Versions/3.11/lib/python3.11/base64.py',
   'PYMODULE'),
  ('bdb',
   '/usr/local/Cellar/python@3.11/3.11.7_1/Frameworks/Python.framework/Versions/3.11/lib/python3.11/bdb.py',
   'PYMODULE'),
  ('bisect',
   '/usr/local/Cellar/python@3.11/3.11.7_1/Frameworks/Python.framework/Versions/3.11/lib/python3.11/bisect.py',
   'PYMODULE'),
  ('bz2',
   '/usr/local/Cellar/python@3.11/3.11.7_1/Frameworks/Python.framework/Versions/3.11/lib/python3.11/bz2.py',
   'PYMODULE'),
  ('calendar',
   '/usr/local/Cellar/python@3.11/3.11.7_1/Frameworks/Python.framework/Versions/3.11/lib/python3.11/calendar.py',
   'PYMODULE'),
  ('cmd',
   '/usr/local/Cellar/python@3.11/3.11.7_1/Frameworks/Python.framework/Versions/3.11/lib/python3.11/cmd.py',
   'PYMODULE'),
  ('code',
   '/usr/local/Cellar/python@3.11/3.11.7_1/Frameworks/Python.framework/Versions/3.11/lib/python3.11/code.py',
   'PYMODULE'),
  ('codeop',
   '/usr/local/Cellar/python@3.11/3.11.7_1/Frameworks/Python.framework/Versions/3.11/lib/python3.11/codeop.py',
   'PYMODULE'),
  ('colorsys',
   '/usr/local/Cellar/python@3.11/3.11.7_1/Frameworks/Python.framework/Versions/3.11/lib/python3.11/colorsys.py',
   'PYMODULE'),
  ('concurrent',
   '/usr/local/Cellar/python@3.11/3.11.7_1/Frameworks/Python.framework/Versions/3.11/lib/python3.11/concurrent/__init__.py',
   'PYMODULE'),
  ('concurrent.futures',
   '/usr/local/Cellar/python@3.11/3.11.7_1/Frameworks/Python.framework/Versions/3.11/lib/python3.11/concurrent/futures/__init__.py',
   'PYMODULE'),
  ('concurrent.futures._base',
   '/usr/local/Cellar/python@3.11/3.11.7_1/Frameworks/Python.framework/Versions/3.11/lib/python3.11/concurrent/futures/_base.py',
   'PYMODULE'),
  ('concurrent.futures.process',
   '/usr/local/Cellar/python@3.11/3.11.7_1/Frameworks/Python.framework/Versions/3.11/lib/python3.11/concurrent/futures/process.py',
   'PYMODULE'),
  ('concurrent.futures.thread',
   '/usr/local/Cellar/python@3.11/3.11.7_1/Frameworks/Python.framework/Versions/3.11/lib/python3.11/concurrent/futures/thread.py',
   'PYMODULE'),
  ('configparser',
   '/usr/local/Cellar/python@3.11/3.11.7_1/Frameworks/Python.framework/Versions/3.11/lib/python3.11/configparser.py',
   'PYMODULE'),
  ('contextlib',
   '/usr/local/Cellar/python@3.11/3.11.7_1/Frameworks/Python.framework/Versions/3.11/lib/python3.11/contextlib.py',
   'PYMODULE'),
  ('contextvars',
   '/usr/local/Cellar/python@3.11/3.11.7_1/Frameworks/Python.framework/Versions/3.11/lib/python3.11/contextvars.py',
   'PYMODULE'),
  ('copy',
   '/usr/local/Cellar/python@3.11/3.11.7_1/Frameworks/Python.framework/Versions/3.11/lib/python3.11/copy.py',
   'PYMODULE'),
  ('csv',
   '/usr/local/Cellar/python@3.11/3.11.7_1/Frameworks/Python.framework/Versions/3.11/lib/python3.11/csv.py',
   'PYMODULE'),
  ('ctypes',
   '/usr/local/Cellar/python@3.11/3.11.7_1/Frameworks/Python.framework/Versions/3.11/lib/python3.11/ctypes/__init__.py',
   'PYMODULE'),
  ('ctypes._aix',
   '/usr/local/Cellar/python@3.11/3.11.7_1/Frameworks/Python.framework/Versions/3.11/lib/python3.11/ctypes/_aix.py',
   'PYMODULE'),
  ('ctypes._endian',
   '/usr/local/Cellar/python@3.11/3.11.7_1/Frameworks/Python.framework/Versions/3.11/lib/python3.11/ctypes/_endian.py',
   'PYMODULE'),
  ('ctypes.macholib',
   '/usr/local/Cellar/python@3.11/3.11.7_1/Frameworks/Python.framework/Versions/3.11/lib/python3.11/ctypes/macholib/__init__.py',
   'PYMODULE'),
  ('ctypes.macholib.dyld',
   '/usr/local/Cellar/python@3.11/3.11.7_1/Frameworks/Python.framework/Versions/3.11/lib/python3.11/ctypes/macholib/dyld.py',
   'PYMODULE'),
  ('ctypes.macholib.dylib',
   '/usr/local/Cellar/python@3.11/3.11.7_1/Frameworks/Python.framework/Versions/3.11/lib/python3.11/ctypes/macholib/dylib.py',
   'PYMODULE'),
  ('ctypes.macholib.framework',
   '/usr/local/Cellar/python@3.11/3.11.7_1/Frameworks/Python.framework/Versions/3.11/lib/python3.11/ctypes/macholib/framework.py',
   'PYMODULE'),
  ('ctypes.util',
   '/usr/local/Cellar/python@3.11/3.11.7_1/Frameworks/Python.framework/Versions/3.11/lib/python3.11/ctypes/util.py',
   'PYMODULE'),
  ('ctypes.wintypes',
   '/usr/local/Cellar/python@3.11/3.11.7_1/Frameworks/Python.framework/Versions/3.11/lib/python3.11/ctypes/wintypes.py',
   'PYMODULE'),
  ('dataclasses',
   '/usr/local/Cellar/python@3.11/3.11.7_1/Frameworks/Python.framework/Versions/3.11/lib/python3.11/dataclasses.py',
   'PYMODULE'),
  ('datetime',
   '/usr/local/Cellar/python@3.11/3.11.7_1/Frameworks/Python.framework/Versions/3.11/lib/python3.11/datetime.py',
   'PYMODULE'),
  ('decimal',
   '/usr/local/Cellar/python@3.11/3.11.7_1/Frameworks/Python.framework/Versions/3.11/lib/python3.11/decimal.py',
   'PYMODULE'),
  ('difflib',
   '/usr/local/Cellar/python@3.11/3.11.7_1/Frameworks/Python.framework/Versions/3.11/lib/python3.11/difflib.py',
   'PYMODULE'),
  ('dis',
   '/usr/local/Cellar/python@3.11/3.11.7_1/Frameworks/Python.framework/Versions/3.11/lib/python3.11/dis.py',
   'PYMODULE'),
  ('doctest',
   '/usr/local/Cellar/python@3.11/3.11.7_1/Frameworks/Python.framework/Versions/3.11/lib/python3.11/doctest.py',
   'PYMODULE'),
  ('email',
   '/usr/local/Cellar/python@3.11/3.11.7_1/Frameworks/Python.framework/Versions/3.11/lib/python3.11/email/__init__.py',
   'PYMODULE'),
  ('email._encoded_words',
   '/usr/local/Cellar/python@3.11/3.11.7_1/Frameworks/Python.framework/Versions/3.11/lib/python3.11/email/_encoded_words.py',
   'PYMODULE'),
  ('email._header_value_parser',
   '/usr/local/Cellar/python@3.11/3.11.7_1/Frameworks/Python.framework/Versions/3.11/lib/python3.11/email/_header_value_parser.py',
   'PYMODULE'),
  ('email._parseaddr',
   '/usr/local/Cellar/python@3.11/3.11.7_1/Frameworks/Python.framework/Versions/3.11/lib/python3.11/email/_parseaddr.py',
   'PYMODULE'),
  ('email._policybase',
   '/usr/local/Cellar/python@3.11/3.11.7_1/Frameworks/Python.framework/Versions/3.11/lib/python3.11/email/_policybase.py',
   'PYMODULE'),
  ('email.base64mime',
   '/usr/local/Cellar/python@3.11/3.11.7_1/Frameworks/Python.framework/Versions/3.11/lib/python3.11/email/base64mime.py',
   'PYMODULE'),
  ('email.charset',
   '/usr/local/Cellar/python@3.11/3.11.7_1/Frameworks/Python.framework/Versions/3.11/lib/python3.11/email/charset.py',
   'PYMODULE'),
  ('email.contentmanager',
   '/usr/local/Cellar/python@3.11/3.11.7_1/Frameworks/Python.framework/Versions/3.11/lib/python3.11/email/contentmanager.py',
   'PYMODULE'),
  ('email.encoders',
   '/usr/local/Cellar/python@3.11/3.11.7_1/Frameworks/Python.framework/Versions/3.11/lib/python3.11/email/encoders.py',
   'PYMODULE'),
  ('email.errors',
   '/usr/local/Cellar/python@3.11/3.11.7_1/Frameworks/Python.framework/Versions/3.11/lib/python3.11/email/errors.py',
   'PYMODULE'),
  ('email.feedparser',
   '/usr/local/Cellar/python@3.11/3.11.7_1/Frameworks/Python.framework/Versions/3.11/lib/python3.11/email/feedparser.py',
   'PYMODULE'),
  ('email.generator',
   '/usr/local/Cellar/python@3.11/3.11.7_1/Frameworks/Python.framework/Versions/3.11/lib/python3.11/email/generator.py',
   'PYMODULE'),
  ('email.header',
   '/usr/local/Cellar/python@3.11/3.11.7_1/Frameworks/Python.framework/Versions/3.11/lib/python3.11/email/header.py',
   'PYMODULE'),
  ('email.headerregistry',
   '/usr/local/Cellar/python@3.11/3.11.7_1/Frameworks/Python.framework/Versions/3.11/lib/python3.11/email/headerregistry.py',
   'PYMODULE'),
  ('email.iterators',
   '/usr/local/Cellar/python@3.11/3.11.7_1/Frameworks/Python.framework/Versions/3.11/lib/python3.11/email/iterators.py',
   'PYMODULE'),
  ('email.message',
   '/usr/local/Cellar/python@3.11/3.11.7_1/Frameworks/Python.framework/Versions/3.11/lib/python3.11/email/message.py',
   'PYMODULE'),
  ('email.parser',
   '/usr/local/Cellar/python@3.11/3.11.7_1/Frameworks/Python.framework/Versions/3.11/lib/python3.11/email/parser.py',
   'PYMODULE'),
  ('email.policy',
   '/usr/local/Cellar/python@3.11/3.11.7_1/Frameworks/Python.framework/Versions/3.11/lib/python3.11/email/policy.py',
   'PYMODULE'),
  ('email.quoprimime',
   '/usr/local/Cellar/python@3.11/3.11.7_1/Frameworks/Python.framework/Versions/3.11/lib/python3.11/email/quoprimime.py',
   'PYMODULE'),
  ('email.utils',
   '/usr/local/Cellar/python@3.11/3.11.7_1/Frameworks/Python.framework/Versions/3.11/lib/python3.11/email/utils.py',
   'PYMODULE'),
  ('fnmatch',
   '/usr/local/Cellar/python@3.11/3.11.7_1/Frameworks/Python.framework/Versions/3.11/lib/python3.11/fnmatch.py',
   'PYMODULE'),
  ('fractions',
   '/usr/local/Cellar/python@3.11/3.11.7_1/Frameworks/Python.framework/Versions/3.11/lib/python3.11/fractions.py',
   'PYMODULE'),
  ('ftplib',
   '/usr/local/Cellar/python@3.11/3.11.7_1/Frameworks/Python.framework/Versions/3.11/lib/python3.11/ftplib.py',
   'PYMODULE'),
  ('getopt',
   '/usr/local/Cellar/python@3.11/3.11.7_1/Frameworks/Python.framework/Versions/3.11/lib/python3.11/getopt.py',
   'PYMODULE'),
  ('getpass',
   '/usr/local/Cellar/python@3.11/3.11.7_1/Frameworks/Python.framework/Versions/3.11/lib/python3.11/getpass.py',
   'PYMODULE'),
  ('gettext',
   '/usr/local/Cellar/python@3.11/3.11.7_1/Frameworks/Python.framework/Versions/3.11/lib/python3.11/gettext.py',
   'PYMODULE'),
  ('glob',
   '/usr/local/Cellar/python@3.11/3.11.7_1/Frameworks/Python.framework/Versions/3.11/lib/python3.11/glob.py',
   'PYMODULE'),
  ('gzip',
   '/usr/local/Cellar/python@3.11/3.11.7_1/Frameworks/Python.framework/Versions/3.11/lib/python3.11/gzip.py',
   'PYMODULE'),
  ('hashlib',
   '/usr/local/Cellar/python@3.11/3.11.7_1/Frameworks/Python.framework/Versions/3.11/lib/python3.11/hashlib.py',
   'PYMODULE'),
  ('hmac',
   '/usr/local/Cellar/python@3.11/3.11.7_1/Frameworks/Python.framework/Versions/3.11/lib/python3.11/hmac.py',
   'PYMODULE'),
  ('html',
   '/usr/local/Cellar/python@3.11/3.11.7_1/Frameworks/Python.framework/Versions/3.11/lib/python3.11/html/__init__.py',
   'PYMODULE'),
  ('html.entities',
   '/usr/local/Cellar/python@3.11/3.11.7_1/Frameworks/Python.framework/Versions/3.11/lib/python3.11/html/entities.py',
   'PYMODULE'),
  ('http',
   '/usr/local/Cellar/python@3.11/3.11.7_1/Frameworks/Python.framework/Versions/3.11/lib/python3.11/http/__init__.py',
   'PYMODULE'),
  ('http.client',
   '/usr/local/Cellar/python@3.11/3.11.7_1/Frameworks/Python.framework/Versions/3.11/lib/python3.11/http/client.py',
   'PYMODULE'),
  ('http.cookiejar',
   '/usr/local/Cellar/python@3.11/3.11.7_1/Frameworks/Python.framework/Versions/3.11/lib/python3.11/http/cookiejar.py',
   'PYMODULE'),
  ('http.server',
   '/usr/local/Cellar/python@3.11/3.11.7_1/Frameworks/Python.framework/Versions/3.11/lib/python3.11/http/server.py',
   'PYMODULE'),
  ('imp',
   '/usr/local/Cellar/python@3.11/3.11.7_1/Frameworks/Python.framework/Versions/3.11/lib/python3.11/imp.py',
   'PYMODULE'),
  ('importlib',
   '/usr/local/Cellar/python@3.11/3.11.7_1/Frameworks/Python.framework/Versions/3.11/lib/python3.11/importlib/__init__.py',
   'PYMODULE'),
  ('importlib._abc',
   '/usr/local/Cellar/python@3.11/3.11.7_1/Frameworks/Python.framework/Versions/3.11/lib/python3.11/importlib/_abc.py',
   'PYMODULE'),
  ('importlib._bootstrap',
   '/usr/local/Cellar/python@3.11/3.11.7_1/Frameworks/Python.framework/Versions/3.11/lib/python3.11/importlib/_bootstrap.py',
   'PYMODULE'),
  ('importlib._bootstrap_external',
   '/usr/local/Cellar/python@3.11/3.11.7_1/Frameworks/Python.framework/Versions/3.11/lib/python3.11/importlib/_bootstrap_external.py',
   'PYMODULE'),
  ('importlib.abc',
   '/usr/local/Cellar/python@3.11/3.11.7_1/Frameworks/Python.framework/Versions/3.11/lib/python3.11/importlib/abc.py',
   'PYMODULE'),
  ('importlib.machinery',
   '/usr/local/Cellar/python@3.11/3.11.7_1/Frameworks/Python.framework/Versions/3.11/lib/python3.11/importlib/machinery.py',
   'PYMODULE'),
  ('importlib.metadata',
   '/usr/local/Cellar/python@3.11/3.11.7_1/Frameworks/Python.framework/Versions/3.11/lib/python3.11/importlib/metadata/__init__.py',
   'PYMODULE'),
  ('importlib.metadata._adapters',
   '/usr/local/Cellar/python@3.11/3.11.7_1/Frameworks/Python.framework/Versions/3.11/lib/python3.11/importlib/metadata/_adapters.py',
   'PYMODULE'),
  ('importlib.metadata._collections',
   '/usr/local/Cellar/python@3.11/3.11.7_1/Frameworks/Python.framework/Versions/3.11/lib/python3.11/importlib/metadata/_collections.py',
   'PYMODULE'),
  ('importlib.metadata._functools',
   '/usr/local/Cellar/python@3.11/3.11.7_1/Frameworks/Python.framework/Versions/3.11/lib/python3.11/importlib/metadata/_functools.py',
   'PYMODULE'),
  ('importlib.metadata._itertools',
   '/usr/local/Cellar/python@3.11/3.11.7_1/Frameworks/Python.framework/Versions/3.11/lib/python3.11/importlib/metadata/_itertools.py',
   'PYMODULE'),
  ('importlib.metadata._meta',
   '/usr/local/Cellar/python@3.11/3.11.7_1/Frameworks/Python.framework/Versions/3.11/lib/python3.11/importlib/metadata/_meta.py',
   'PYMODULE'),
  ('importlib.metadata._text',
   '/usr/local/Cellar/python@3.11/3.11.7_1/Frameworks/Python.framework/Versions/3.11/lib/python3.11/importlib/metadata/_text.py',
   'PYMODULE'),
  ('importlib.readers',
   '/usr/local/Cellar/python@3.11/3.11.7_1/Frameworks/Python.framework/Versions/3.11/lib/python3.11/importlib/readers.py',
   'PYMODULE'),
  ('importlib.resources',
   '/usr/local/Cellar/python@3.11/3.11.7_1/Frameworks/Python.framework/Versions/3.11/lib/python3.11/importlib/resources/__init__.py',
   'PYMODULE'),
  ('importlib.resources._adapters',
   '/usr/local/Cellar/python@3.11/3.11.7_1/Frameworks/Python.framework/Versions/3.11/lib/python3.11/importlib/resources/_adapters.py',
   'PYMODULE'),
  ('importlib.resources._common',
   '/usr/local/Cellar/python@3.11/3.11.7_1/Frameworks/Python.framework/Versions/3.11/lib/python3.11/importlib/resources/_common.py',
   'PYMODULE'),
  ('importlib.resources._itertools',
   '/usr/local/Cellar/python@3.11/3.11.7_1/Frameworks/Python.framework/Versions/3.11/lib/python3.11/importlib/resources/_itertools.py',
   'PYMODULE'),
  ('importlib.resources._legacy',
   '/usr/local/Cellar/python@3.11/3.11.7_1/Frameworks/Python.framework/Versions/3.11/lib/python3.11/importlib/resources/_legacy.py',
   'PYMODULE'),
  ('importlib.resources.abc',
   '/usr/local/Cellar/python@3.11/3.11.7_1/Frameworks/Python.framework/Versions/3.11/lib/python3.11/importlib/resources/abc.py',
   'PYMODULE'),
  ('importlib.resources.readers',
   '/usr/local/Cellar/python@3.11/3.11.7_1/Frameworks/Python.framework/Versions/3.11/lib/python3.11/importlib/resources/readers.py',
   'PYMODULE'),
  ('importlib.util',
   '/usr/local/Cellar/python@3.11/3.11.7_1/Frameworks/Python.framework/Versions/3.11/lib/python3.11/importlib/util.py',
   'PYMODULE'),
  ('inspect',
   '/usr/local/Cellar/python@3.11/3.11.7_1/Frameworks/Python.framework/Versions/3.11/lib/python3.11/inspect.py',
   'PYMODULE'),
  ('ipaddress',
   '/usr/local/Cellar/python@3.11/3.11.7_1/Frameworks/Python.framework/Versions/3.11/lib/python3.11/ipaddress.py',
   'PYMODULE'),
  ('logging',
   '/usr/local/Cellar/python@3.11/3.11.7_1/Frameworks/Python.framework/Versions/3.11/lib/python3.11/logging/__init__.py',
   'PYMODULE'),
  ('lzma',
   '/usr/local/Cellar/python@3.11/3.11.7_1/Frameworks/Python.framework/Versions/3.11/lib/python3.11/lzma.py',
   'PYMODULE'),
  ('mimetypes',
   '/usr/local/Cellar/python@3.11/3.11.7_1/Frameworks/Python.framework/Versions/3.11/lib/python3.11/mimetypes.py',
   'PYMODULE'),
  ('mouseinfo',
   '/Users/evanblanc/Documents/Computer-Science/Projects/automousemover/.venv/lib/python3.11/site-packages/mouseinfo/__init__.py',
   'PYMODULE'),
  ('multiprocessing',
   '/usr/local/Cellar/python@3.11/3.11.7_1/Frameworks/Python.framework/Versions/3.11/lib/python3.11/multiprocessing/__init__.py',
   'PYMODULE'),
  ('multiprocessing.connection',
   '/usr/local/Cellar/python@3.11/3.11.7_1/Frameworks/Python.framework/Versions/3.11/lib/python3.11/multiprocessing/connection.py',
   'PYMODULE'),
  ('multiprocessing.context',
   '/usr/local/Cellar/python@3.11/3.11.7_1/Frameworks/Python.framework/Versions/3.11/lib/python3.11/multiprocessing/context.py',
   'PYMODULE'),
  ('multiprocessing.dummy',
   '/usr/local/Cellar/python@3.11/3.11.7_1/Frameworks/Python.framework/Versions/3.11/lib/python3.11/multiprocessing/dummy/__init__.py',
   'PYMODULE'),
  ('multiprocessing.dummy.connection',
   '/usr/local/Cellar/python@3.11/3.11.7_1/Frameworks/Python.framework/Versions/3.11/lib/python3.11/multiprocessing/dummy/connection.py',
   'PYMODULE'),
  ('multiprocessing.forkserver',
   '/usr/local/Cellar/python@3.11/3.11.7_1/Frameworks/Python.framework/Versions/3.11/lib/python3.11/multiprocessing/forkserver.py',
   'PYMODULE'),
  ('multiprocessing.heap',
   '/usr/local/Cellar/python@3.11/3.11.7_1/Frameworks/Python.framework/Versions/3.11/lib/python3.11/multiprocessing/heap.py',
   'PYMODULE'),
  ('multiprocessing.managers',
   '/usr/local/Cellar/python@3.11/3.11.7_1/Frameworks/Python.framework/Versions/3.11/lib/python3.11/multiprocessing/managers.py',
   'PYMODULE'),
  ('multiprocessing.pool',
   '/usr/local/Cellar/python@3.11/3.11.7_1/Frameworks/Python.framework/Versions/3.11/lib/python3.11/multiprocessing/pool.py',
   'PYMODULE'),
  ('multiprocessing.popen_fork',
   '/usr/local/Cellar/python@3.11/3.11.7_1/Frameworks/Python.framework/Versions/3.11/lib/python3.11/multiprocessing/popen_fork.py',
   'PYMODULE'),
  ('multiprocessing.popen_forkserver',
   '/usr/local/Cellar/python@3.11/3.11.7_1/Frameworks/Python.framework/Versions/3.11/lib/python3.11/multiprocessing/popen_forkserver.py',
   'PYMODULE'),
  ('multiprocessing.popen_spawn_posix',
   '/usr/local/Cellar/python@3.11/3.11.7_1/Frameworks/Python.framework/Versions/3.11/lib/python3.11/multiprocessing/popen_spawn_posix.py',
   'PYMODULE'),
  ('multiprocessing.popen_spawn_win32',
   '/usr/local/Cellar/python@3.11/3.11.7_1/Frameworks/Python.framework/Versions/3.11/lib/python3.11/multiprocessing/popen_spawn_win32.py',
   'PYMODULE'),
  ('multiprocessing.process',
   '/usr/local/Cellar/python@3.11/3.11.7_1/Frameworks/Python.framework/Versions/3.11/lib/python3.11/multiprocessing/process.py',
   'PYMODULE'),
  ('multiprocessing.queues',
   '/usr/local/Cellar/python@3.11/3.11.7_1/Frameworks/Python.framework/Versions/3.11/lib/python3.11/multiprocessing/queues.py',
   'PYMODULE'),
  ('multiprocessing.reduction',
   '/usr/local/Cellar/python@3.11/3.11.7_1/Frameworks/Python.framework/Versions/3.11/lib/python3.11/multiprocessing/reduction.py',
   'PYMODULE'),
  ('multiprocessing.resource_sharer',
   '/usr/local/Cellar/python@3.11/3.11.7_1/Frameworks/Python.framework/Versions/3.11/lib/python3.11/multiprocessing/resource_sharer.py',
   'PYMODULE'),
  ('multiprocessing.resource_tracker',
   '/usr/local/Cellar/python@3.11/3.11.7_1/Frameworks/Python.framework/Versions/3.11/lib/python3.11/multiprocessing/resource_tracker.py',
   'PYMODULE'),
  ('multiprocessing.shared_memory',
   '/usr/local/Cellar/python@3.11/3.11.7_1/Frameworks/Python.framework/Versions/3.11/lib/python3.11/multiprocessing/shared_memory.py',
   'PYMODULE'),
  ('multiprocessing.sharedctypes',
   '/usr/local/Cellar/python@3.11/3.11.7_1/Frameworks/Python.framework/Versions/3.11/lib/python3.11/multiprocessing/sharedctypes.py',
   'PYMODULE'),
  ('multiprocessing.spawn',
   '/usr/local/Cellar/python@3.11/3.11.7_1/Frameworks/Python.framework/Versions/3.11/lib/python3.11/multiprocessing/spawn.py',
   'PYMODULE'),
  ('multiprocessing.synchronize',
   '/usr/local/Cellar/python@3.11/3.11.7_1/Frameworks/Python.framework/Versions/3.11/lib/python3.11/multiprocessing/synchronize.py',
   'PYMODULE'),
  ('multiprocessing.util',
   '/usr/local/Cellar/python@3.11/3.11.7_1/Frameworks/Python.framework/Versions/3.11/lib/python3.11/multiprocessing/util.py',
   'PYMODULE'),
  ('netrc',
   '/usr/local/Cellar/python@3.11/3.11.7_1/Frameworks/Python.framework/Versions/3.11/lib/python3.11/netrc.py',
   'PYMODULE'),
  ('nturl2path',
   '/usr/local/Cellar/python@3.11/3.11.7_1/Frameworks/Python.framework/Versions/3.11/lib/python3.11/nturl2path.py',
   'PYMODULE'),
  ('numbers',
   '/usr/local/Cellar/python@3.11/3.11.7_1/Frameworks/Python.framework/Versions/3.11/lib/python3.11/numbers.py',
   'PYMODULE'),
  ('objc',
   '/Users/evanblanc/Documents/Computer-Science/Projects/automousemover/.venv/lib/python3.11/site-packages/objc/__init__.py',
   'PYMODULE'),
  ('objc._bridges',
   '/Users/evanblanc/Documents/Computer-Science/Projects/automousemover/.venv/lib/python3.11/site-packages/objc/_bridges.py',
   'PYMODULE'),
  ('objc._bridgesupport',
   '/Users/evanblanc/Documents/Computer-Science/Projects/automousemover/.venv/lib/python3.11/site-packages/objc/_bridgesupport.py',
   'PYMODULE'),
  ('objc._callable_docstr',
   '/Users/evanblanc/Documents/Computer-Science/Projects/automousemover/.venv/lib/python3.11/site-packages/objc/_callable_docstr.py',
   'PYMODULE'),
  ('objc._category',
   '/Users/evanblanc/Documents/Computer-Science/Projects/automousemover/.venv/lib/python3.11/site-packages/objc/_category.py',
   'PYMODULE'),
  ('objc._compat',
   '/Users/evanblanc/Documents/Computer-Science/Projects/automousemover/.venv/lib/python3.11/site-packages/objc/_compat.py',
   'PYMODULE'),
  ('objc._context',
   '/Users/evanblanc/Documents/Computer-Science/Projects/automousemover/.venv/lib/python3.11/site-packages/objc/_context.py',
   'PYMODULE'),
  ('objc._convenience',
   '/Users/evanblanc/Documents/Computer-Science/Projects/automousemover/.venv/lib/python3.11/site-packages/objc/_convenience.py',
   'PYMODULE'),
  ('objc._convenience_mapping',
   '/Users/evanblanc/Documents/Computer-Science/Projects/automousemover/.venv/lib/python3.11/site-packages/objc/_convenience_mapping.py',
   'PYMODULE'),
  ('objc._convenience_nsarray',
   '/Users/evanblanc/Documents/Computer-Science/Projects/automousemover/.venv/lib/python3.11/site-packages/objc/_convenience_nsarray.py',
   'PYMODULE'),
  ('objc._convenience_nsdata',
   '/Users/evanblanc/Documents/Computer-Science/Projects/automousemover/.venv/lib/python3.11/site-packages/objc/_convenience_nsdata.py',
   'PYMODULE'),
  ('objc._convenience_nsdecimal',
   '/Users/evanblanc/Documents/Computer-Science/Projects/automousemover/.venv/lib/python3.11/site-packages/objc/_convenience_nsdecimal.py',
   'PYMODULE'),
  ('objc._convenience_nsdictionary',
   '/Users/evanblanc/Documents/Computer-Science/Projects/automousemover/.venv/lib/python3.11/site-packages/objc/_convenience_nsdictionary.py',
   'PYMODULE'),
  ('objc._convenience_nsobject',
   '/Users/evanblanc/Documents/Computer-Science/Projects/automousemover/.venv/lib/python3.11/site-packages/objc/_convenience_nsobject.py',
   'PYMODULE'),
  ('objc._convenience_nsset',
   '/Users/evanblanc/Documents/Computer-Science/Projects/automousemover/.venv/lib/python3.11/site-packages/objc/_convenience_nsset.py',
   'PYMODULE'),
  ('objc._convenience_nsstring',
   '/Users/evanblanc/Documents/Computer-Science/Projects/automousemover/.venv/lib/python3.11/site-packages/objc/_convenience_nsstring.py',
   'PYMODULE'),
  ('objc._convenience_sequence',
   '/Users/evanblanc/Documents/Computer-Science/Projects/automousemover/.venv/lib/python3.11/site-packages/objc/_convenience_sequence.py',
   'PYMODULE'),
  ('objc._descriptors',
   '/Users/evanblanc/Documents/Computer-Science/Projects/automousemover/.venv/lib/python3.11/site-packages/objc/_descriptors.py',
   'PYMODULE'),
  ('objc._dyld',
   '/Users/evanblanc/Documents/Computer-Science/Projects/automousemover/.venv/lib/python3.11/site-packages/objc/_dyld.py',
   'PYMODULE'),
  ('objc._framework',
   '/Users/evanblanc/Documents/Computer-Science/Projects/automousemover/.venv/lib/python3.11/site-packages/objc/_framework.py',
   'PYMODULE'),
  ('objc._informal_protocol',
   '/Users/evanblanc/Documents/Computer-Science/Projects/automousemover/.venv/lib/python3.11/site-packages/objc/_informal_protocol.py',
   'PYMODULE'),
  ('objc._lazyimport',
   '/Users/evanblanc/Documents/Computer-Science/Projects/automousemover/.venv/lib/python3.11/site-packages/objc/_lazyimport.py',
   'PYMODULE'),
  ('objc._locking',
   '/Users/evanblanc/Documents/Computer-Science/Projects/automousemover/.venv/lib/python3.11/site-packages/objc/_locking.py',
   'PYMODULE'),
  ('objc._properties',
   '/Users/evanblanc/Documents/Computer-Science/Projects/automousemover/.venv/lib/python3.11/site-packages/objc/_properties.py',
   'PYMODULE'),
  ('objc._protocols',
   '/Users/evanblanc/Documents/Computer-Science/Projects/automousemover/.venv/lib/python3.11/site-packages/objc/_protocols.py',
   'PYMODULE'),
  ('objc._pycoder',
   '/Users/evanblanc/Documents/Computer-Science/Projects/automousemover/.venv/lib/python3.11/site-packages/objc/_pycoder.py',
   'PYMODULE'),
  ('objc._pythonify',
   '/Users/evanblanc/Documents/Computer-Science/Projects/automousemover/.venv/lib/python3.11/site-packages/objc/_pythonify.py',
   'PYMODULE'),
  ('objc._structtype',
   '/Users/evanblanc/Documents/Computer-Science/Projects/automousemover/.venv/lib/python3.11/site-packages/objc/_structtype.py',
   'PYMODULE'),
  ('objc._transform',
   '/Users/evanblanc/Documents/Computer-Science/Projects/automousemover/.venv/lib/python3.11/site-packages/objc/_transform.py',
   'PYMODULE'),
  ('opcode',
   '/usr/local/Cellar/python@3.11/3.11.7_1/Frameworks/Python.framework/Versions/3.11/lib/python3.11/opcode.py',
   'PYMODULE'),
  ('packaging',
   '/Users/evanblanc/Documents/Computer-Science/Projects/automousemover/.venv/lib/python3.11/site-packages/packaging/__init__.py',
   'PYMODULE'),
  ('packaging._elffile',
   '/Users/evanblanc/Documents/Computer-Science/Projects/automousemover/.venv/lib/python3.11/site-packages/packaging/_elffile.py',
   'PYMODULE'),
  ('packaging._manylinux',
   '/Users/evanblanc/Documents/Computer-Science/Projects/automousemover/.venv/lib/python3.11/site-packages/packaging/_manylinux.py',
   'PYMODULE'),
  ('packaging._musllinux',
   '/Users/evanblanc/Documents/Computer-Science/Projects/automousemover/.venv/lib/python3.11/site-packages/packaging/_musllinux.py',
   'PYMODULE'),
  ('packaging._parser',
   '/Users/evanblanc/Documents/Computer-Science/Projects/automousemover/.venv/lib/python3.11/site-packages/packaging/_parser.py',
   'PYMODULE'),
  ('packaging._structures',
   '/Users/evanblanc/Documents/Computer-Science/Projects/automousemover/.venv/lib/python3.11/site-packages/packaging/_structures.py',
   'PYMODULE'),
  ('packaging._tokenizer',
   '/Users/evanblanc/Documents/Computer-Science/Projects/automousemover/.venv/lib/python3.11/site-packages/packaging/_tokenizer.py',
   'PYMODULE'),
  ('packaging.markers',
   '/Users/evanblanc/Documents/Computer-Science/Projects/automousemover/.venv/lib/python3.11/site-packages/packaging/markers.py',
   'PYMODULE'),
  ('packaging.metadata',
   '/Users/evanblanc/Documents/Computer-Science/Projects/automousemover/.venv/lib/python3.11/site-packages/packaging/metadata.py',
   'PYMODULE'),
  ('packaging.requirements',
   '/Users/evanblanc/Documents/Computer-Science/Projects/automousemover/.venv/lib/python3.11/site-packages/packaging/requirements.py',
   'PYMODULE'),
  ('packaging.specifiers',
   '/Users/evanblanc/Documents/Computer-Science/Projects/automousemover/.venv/lib/python3.11/site-packages/packaging/specifiers.py',
   'PYMODULE'),
  ('packaging.tags',
   '/Users/evanblanc/Documents/Computer-Science/Projects/automousemover/.venv/lib/python3.11/site-packages/packaging/tags.py',
   'PYMODULE'),
  ('packaging.utils',
   '/Users/evanblanc/Documents/Computer-Science/Projects/automousemover/.venv/lib/python3.11/site-packages/packaging/utils.py',
   'PYMODULE'),
  ('packaging.version',
   '/Users/evanblanc/Documents/Computer-Science/Projects/automousemover/.venv/lib/python3.11/site-packages/packaging/version.py',
   'PYMODULE'),
  ('pathlib',
   '/usr/local/Cellar/python@3.11/3.11.7_1/Frameworks/Python.framework/Versions/3.11/lib/python3.11/pathlib.py',
   'PYMODULE'),
  ('pdb',
   '/usr/local/Cellar/python@3.11/3.11.7_1/Frameworks/Python.framework/Versions/3.11/lib/python3.11/pdb.py',
   'PYMODULE'),
  ('pickle',
   '/usr/local/Cellar/python@3.11/3.11.7_1/Frameworks/Python.framework/Versions/3.11/lib/python3.11/pickle.py',
   'PYMODULE'),
  ('pkg_resources',
   '/Users/evanblanc/Documents/Computer-Science/Projects/automousemover/.venv/lib/python3.11/site-packages/pkg_resources/__init__.py',
   'PYMODULE'),
  ('pkg_resources._vendor',
   '/Users/evanblanc/Documents/Computer-Science/Projects/automousemover/.venv/lib/python3.11/site-packages/pkg_resources/_vendor/__init__.py',
   'PYMODULE'),
  ('pkg_resources._vendor.importlib_resources',
   '/Users/evanblanc/Documents/Computer-Science/Projects/automousemover/.venv/lib/python3.11/site-packages/pkg_resources/_vendor/importlib_resources/__init__.py',
   'PYMODULE'),
  ('pkg_resources._vendor.importlib_resources._adapters',
   '/Users/evanblanc/Documents/Computer-Science/Projects/automousemover/.venv/lib/python3.11/site-packages/pkg_resources/_vendor/importlib_resources/_adapters.py',
   'PYMODULE'),
  ('pkg_resources._vendor.importlib_resources._common',
   '/Users/evanblanc/Documents/Computer-Science/Projects/automousemover/.venv/lib/python3.11/site-packages/pkg_resources/_vendor/importlib_resources/_common.py',
   'PYMODULE'),
  ('pkg_resources._vendor.importlib_resources._compat',
   '/Users/evanblanc/Documents/Computer-Science/Projects/automousemover/.venv/lib/python3.11/site-packages/pkg_resources/_vendor/importlib_resources/_compat.py',
   'PYMODULE'),
  ('pkg_resources._vendor.importlib_resources._itertools',
   '/Users/evanblanc/Documents/Computer-Science/Projects/automousemover/.venv/lib/python3.11/site-packages/pkg_resources/_vendor/importlib_resources/_itertools.py',
   'PYMODULE'),
  ('pkg_resources._vendor.importlib_resources._legacy',
   '/Users/evanblanc/Documents/Computer-Science/Projects/automousemover/.venv/lib/python3.11/site-packages/pkg_resources/_vendor/importlib_resources/_legacy.py',
   'PYMODULE'),
  ('pkg_resources._vendor.importlib_resources.abc',
   '/Users/evanblanc/Documents/Computer-Science/Projects/automousemover/.venv/lib/python3.11/site-packages/pkg_resources/_vendor/importlib_resources/abc.py',
   'PYMODULE'),
  ('pkg_resources._vendor.importlib_resources.readers',
   '/Users/evanblanc/Documents/Computer-Science/Projects/automousemover/.venv/lib/python3.11/site-packages/pkg_resources/_vendor/importlib_resources/readers.py',
   'PYMODULE'),
  ('pkg_resources._vendor.importlib_resources.simple',
   '/Users/evanblanc/Documents/Computer-Science/Projects/automousemover/.venv/lib/python3.11/site-packages/pkg_resources/_vendor/importlib_resources/simple.py',
   'PYMODULE'),
  ('pkg_resources._vendor.jaraco',
   '/Users/evanblanc/Documents/Computer-Science/Projects/automousemover/.venv/lib/python3.11/site-packages/pkg_resources/_vendor/jaraco/__init__.py',
   'PYMODULE'),
  ('pkg_resources._vendor.jaraco.context',
   '/Users/evanblanc/Documents/Computer-Science/Projects/automousemover/.venv/lib/python3.11/site-packages/pkg_resources/_vendor/jaraco/context.py',
   'PYMODULE'),
  ('pkg_resources._vendor.jaraco.functools',
   '/Users/evanblanc/Documents/Computer-Science/Projects/automousemover/.venv/lib/python3.11/site-packages/pkg_resources/_vendor/jaraco/functools.py',
   'PYMODULE'),
  ('pkg_resources._vendor.jaraco.text',
   '/Users/evanblanc/Documents/Computer-Science/Projects/automousemover/.venv/lib/python3.11/site-packages/pkg_resources/_vendor/jaraco/text/__init__.py',
   'PYMODULE'),
  ('pkg_resources._vendor.more_itertools',
   '/Users/evanblanc/Documents/Computer-Science/Projects/automousemover/.venv/lib/python3.11/site-packages/pkg_resources/_vendor/more_itertools/__init__.py',
   'PYMODULE'),
  ('pkg_resources._vendor.more_itertools.more',
   '/Users/evanblanc/Documents/Computer-Science/Projects/automousemover/.venv/lib/python3.11/site-packages/pkg_resources/_vendor/more_itertools/more.py',
   'PYMODULE'),
  ('pkg_resources._vendor.more_itertools.recipes',
   '/Users/evanblanc/Documents/Computer-Science/Projects/automousemover/.venv/lib/python3.11/site-packages/pkg_resources/_vendor/more_itertools/recipes.py',
   'PYMODULE'),
  ('pkg_resources._vendor.packaging',
   '/Users/evanblanc/Documents/Computer-Science/Projects/automousemover/.venv/lib/python3.11/site-packages/pkg_resources/_vendor/packaging/__init__.py',
   'PYMODULE'),
  ('pkg_resources._vendor.packaging._elffile',
   '/Users/evanblanc/Documents/Computer-Science/Projects/automousemover/.venv/lib/python3.11/site-packages/pkg_resources/_vendor/packaging/_elffile.py',
   'PYMODULE'),
  ('pkg_resources._vendor.packaging._manylinux',
   '/Users/evanblanc/Documents/Computer-Science/Projects/automousemover/.venv/lib/python3.11/site-packages/pkg_resources/_vendor/packaging/_manylinux.py',
   'PYMODULE'),
  ('pkg_resources._vendor.packaging._musllinux',
   '/Users/evanblanc/Documents/Computer-Science/Projects/automousemover/.venv/lib/python3.11/site-packages/pkg_resources/_vendor/packaging/_musllinux.py',
   'PYMODULE'),
  ('pkg_resources._vendor.packaging._parser',
   '/Users/evanblanc/Documents/Computer-Science/Projects/automousemover/.venv/lib/python3.11/site-packages/pkg_resources/_vendor/packaging/_parser.py',
   'PYMODULE'),
  ('pkg_resources._vendor.packaging._structures',
   '/Users/evanblanc/Documents/Computer-Science/Projects/automousemover/.venv/lib/python3.11/site-packages/pkg_resources/_vendor/packaging/_structures.py',
   'PYMODULE'),
  ('pkg_resources._vendor.packaging._tokenizer',
   '/Users/evanblanc/Documents/Computer-Science/Projects/automousemover/.venv/lib/python3.11/site-packages/pkg_resources/_vendor/packaging/_tokenizer.py',
   'PYMODULE'),
  ('pkg_resources._vendor.packaging.markers',
   '/Users/evanblanc/Documents/Computer-Science/Projects/automousemover/.venv/lib/python3.11/site-packages/pkg_resources/_vendor/packaging/markers.py',
   'PYMODULE'),
  ('pkg_resources._vendor.packaging.metadata',
   '/Users/evanblanc/Documents/Computer-Science/Projects/automousemover/.venv/lib/python3.11/site-packages/pkg_resources/_vendor/packaging/metadata.py',
   'PYMODULE'),
  ('pkg_resources._vendor.packaging.requirements',
   '/Users/evanblanc/Documents/Computer-Science/Projects/automousemover/.venv/lib/python3.11/site-packages/pkg_resources/_vendor/packaging/requirements.py',
   'PYMODULE'),
  ('pkg_resources._vendor.packaging.specifiers',
   '/Users/evanblanc/Documents/Computer-Science/Projects/automousemover/.venv/lib/python3.11/site-packages/pkg_resources/_vendor/packaging/specifiers.py',
   'PYMODULE'),
  ('pkg_resources._vendor.packaging.tags',
   '/Users/evanblanc/Documents/Computer-Science/Projects/automousemover/.venv/lib/python3.11/site-packages/pkg_resources/_vendor/packaging/tags.py',
   'PYMODULE'),
  ('pkg_resources._vendor.packaging.utils',
   '/Users/evanblanc/Documents/Computer-Science/Projects/automousemover/.venv/lib/python3.11/site-packages/pkg_resources/_vendor/packaging/utils.py',
   'PYMODULE'),
  ('pkg_resources._vendor.packaging.version',
   '/Users/evanblanc/Documents/Computer-Science/Projects/automousemover/.venv/lib/python3.11/site-packages/pkg_resources/_vendor/packaging/version.py',
   'PYMODULE'),
  ('pkg_resources._vendor.platformdirs',
   '/Users/evanblanc/Documents/Computer-Science/Projects/automousemover/.venv/lib/python3.11/site-packages/pkg_resources/_vendor/platformdirs/__init__.py',
   'PYMODULE'),
  ('pkg_resources._vendor.platformdirs.__main__',
   '/Users/evanblanc/Documents/Computer-Science/Projects/automousemover/.venv/lib/python3.11/site-packages/pkg_resources/_vendor/platformdirs/__main__.py',
   'PYMODULE'),
  ('pkg_resources._vendor.platformdirs.android',
   '/Users/evanblanc/Documents/Computer-Science/Projects/automousemover/.venv/lib/python3.11/site-packages/pkg_resources/_vendor/platformdirs/android.py',
   'PYMODULE'),
  ('pkg_resources._vendor.platformdirs.api',
   '/Users/evanblanc/Documents/Computer-Science/Projects/automousemover/.venv/lib/python3.11/site-packages/pkg_resources/_vendor/platformdirs/api.py',
   'PYMODULE'),
  ('pkg_resources._vendor.platformdirs.macos',
   '/Users/evanblanc/Documents/Computer-Science/Projects/automousemover/.venv/lib/python3.11/site-packages/pkg_resources/_vendor/platformdirs/macos.py',
   'PYMODULE'),
  ('pkg_resources._vendor.platformdirs.unix',
   '/Users/evanblanc/Documents/Computer-Science/Projects/automousemover/.venv/lib/python3.11/site-packages/pkg_resources/_vendor/platformdirs/unix.py',
   'PYMODULE'),
  ('pkg_resources._vendor.platformdirs.version',
   '/Users/evanblanc/Documents/Computer-Science/Projects/automousemover/.venv/lib/python3.11/site-packages/pkg_resources/_vendor/platformdirs/version.py',
   'PYMODULE'),
  ('pkg_resources._vendor.platformdirs.windows',
   '/Users/evanblanc/Documents/Computer-Science/Projects/automousemover/.venv/lib/python3.11/site-packages/pkg_resources/_vendor/platformdirs/windows.py',
   'PYMODULE'),
  ('pkg_resources._vendor.typing_extensions',
   '/Users/evanblanc/Documents/Computer-Science/Projects/automousemover/.venv/lib/python3.11/site-packages/pkg_resources/_vendor/typing_extensions.py',
   'PYMODULE'),
  ('pkg_resources._vendor.zipp',
   '/Users/evanblanc/Documents/Computer-Science/Projects/automousemover/.venv/lib/python3.11/site-packages/pkg_resources/_vendor/zipp.py',
   'PYMODULE'),
  ('pkg_resources.extern',
   '/Users/evanblanc/Documents/Computer-Science/Projects/automousemover/.venv/lib/python3.11/site-packages/pkg_resources/extern/__init__.py',
   'PYMODULE'),
  ('pkgutil',
   '/usr/local/Cellar/python@3.11/3.11.7_1/Frameworks/Python.framework/Versions/3.11/lib/python3.11/pkgutil.py',
   'PYMODULE'),
  ('platform',
   '/usr/local/Cellar/python@3.11/3.11.7_1/Frameworks/Python.framework/Versions/3.11/lib/python3.11/platform.py',
   'PYMODULE'),
  ('plistlib',
   '/usr/local/Cellar/python@3.11/3.11.7_1/Frameworks/Python.framework/Versions/3.11/lib/python3.11/plistlib.py',
   'PYMODULE'),
  ('pprint',
   '/usr/local/Cellar/python@3.11/3.11.7_1/Frameworks/Python.framework/Versions/3.11/lib/python3.11/pprint.py',
   'PYMODULE'),
  ('py_compile',
   '/usr/local/Cellar/python@3.11/3.11.7_1/Frameworks/Python.framework/Versions/3.11/lib/python3.11/py_compile.py',
   'PYMODULE'),
  ('pyautogui',
   '/Users/evanblanc/Documents/Computer-Science/Projects/automousemover/.venv/lib/python3.11/site-packages/pyautogui/__init__.py',
   'PYMODULE'),
  ('pyautogui._pyautogui_osx',
   '/Users/evanblanc/Documents/Computer-Science/Projects/automousemover/.venv/lib/python3.11/site-packages/pyautogui/_pyautogui_osx.py',
   'PYMODULE'),
  ('pyautogui._pyautogui_win',
   '/Users/evanblanc/Documents/Computer-Science/Projects/automousemover/.venv/lib/python3.11/site-packages/pyautogui/_pyautogui_win.py',
   'PYMODULE'),
  ('pyautogui._pyautogui_x11',
   '/Users/evanblanc/Documents/Computer-Science/Projects/automousemover/.venv/lib/python3.11/site-packages/pyautogui/_pyautogui_x11.py',
   'PYMODULE'),
  ('pydoc',
   '/usr/local/Cellar/python@3.11/3.11.7_1/Frameworks/Python.framework/Versions/3.11/lib/python3.11/pydoc.py',
   'PYMODULE'),
  ('pydoc_data',
   '/usr/local/Cellar/python@3.11/3.11.7_1/Frameworks/Python.framework/Versions/3.11/lib/python3.11/pydoc_data/__init__.py',
   'PYMODULE'),
  ('pydoc_data.topics',
   '/usr/local/Cellar/python@3.11/3.11.7_1/Frameworks/Python.framework/Versions/3.11/lib/python3.11/pydoc_data/topics.py',
   'PYMODULE'),
  ('pygetwindow',
   '/Users/evanblanc/Documents/Computer-Science/Projects/automousemover/.venv/lib/python3.11/site-packages/pygetwindow/__init__.py',
   'PYMODULE'),
  ('pygetwindow._pygetwindow_macos',
   '/Users/evanblanc/Documents/Computer-Science/Projects/automousemover/.venv/lib/python3.11/site-packages/pygetwindow/_pygetwindow_macos.py',
   'PYMODULE'),
  ('pygetwindow._pygetwindow_win',
   '/Users/evanblanc/Documents/Computer-Science/Projects/automousemover/.venv/lib/python3.11/site-packages/pygetwindow/_pygetwindow_win.py',
   'PYMODULE'),
  ('pymsgbox',
   '/Users/evanblanc/Documents/Computer-Science/Projects/automousemover/.venv/lib/python3.11/site-packages/pymsgbox/__init__.py',
   'PYMODULE'),
  ('pymsgbox._native_win',
   '/Users/evanblanc/Documents/Computer-Science/Projects/automousemover/.venv/lib/python3.11/site-packages/pymsgbox/_native_win.py',
   'PYMODULE'),
  ('pyperclip',
   '/Users/evanblanc/Documents/Computer-Science/Projects/automousemover/.venv/lib/python3.11/site-packages/pyperclip/__init__.py',
   'PYMODULE'),
  ('pyrect',
   '/Users/evanblanc/Documents/Computer-Science/Projects/automousemover/.venv/lib/python3.11/site-packages/pyrect/__init__.py',
   'PYMODULE'),
  ('pyscreeze',
   '/Users/evanblanc/Documents/Computer-Science/Projects/automousemover/.venv/lib/python3.11/site-packages/pyscreeze/__init__.py',
   'PYMODULE'),
  ('pytweening',
   '/Users/evanblanc/Documents/Computer-Science/Projects/automousemover/.venv/lib/python3.11/site-packages/pytweening/__init__.py',
   'PYMODULE'),
  ('queue',
   '/usr/local/Cellar/python@3.11/3.11.7_1/Frameworks/Python.framework/Versions/3.11/lib/python3.11/queue.py',
   'PYMODULE'),
  ('quopri',
   '/usr/local/Cellar/python@3.11/3.11.7_1/Frameworks/Python.framework/Versions/3.11/lib/python3.11/quopri.py',
   'PYMODULE'),
  ('random',
   '/usr/local/Cellar/python@3.11/3.11.7_1/Frameworks/Python.framework/Versions/3.11/lib/python3.11/random.py',
   'PYMODULE'),
  ('rubicon', '-', 'PYMODULE'),
  ('rubicon.objc',
   '/Users/evanblanc/Documents/Computer-Science/Projects/automousemover/.venv/lib/python3.11/site-packages/rubicon/objc/__init__.py',
   'PYMODULE'),
  ('rubicon.objc.api',
   '/Users/evanblanc/Documents/Computer-Science/Projects/automousemover/.venv/lib/python3.11/site-packages/rubicon/objc/api.py',
   'PYMODULE'),
  ('rubicon.objc.collections',
   '/Users/evanblanc/Documents/Computer-Science/Projects/automousemover/.venv/lib/python3.11/site-packages/rubicon/objc/collections.py',
   'PYMODULE'),
  ('rubicon.objc.ctypes_patch',
   '/Users/evanblanc/Documents/Computer-Science/Projects/automousemover/.venv/lib/python3.11/site-packages/rubicon/objc/ctypes_patch.py',
   'PYMODULE'),
  ('rubicon.objc.runtime',
   '/Users/evanblanc/Documents/Computer-Science/Projects/automousemover/.venv/lib/python3.11/site-packages/rubicon/objc/runtime.py',
   'PYMODULE'),
  ('rubicon.objc.types',
   '/Users/evanblanc/Documents/Computer-Science/Projects/automousemover/.venv/lib/python3.11/site-packages/rubicon/objc/types.py',
   'PYMODULE'),
  ('runpy',
   '/usr/local/Cellar/python@3.11/3.11.7_1/Frameworks/Python.framework/Versions/3.11/lib/python3.11/runpy.py',
   'PYMODULE'),
  ('secrets',
   '/usr/local/Cellar/python@3.11/3.11.7_1/Frameworks/Python.framework/Versions/3.11/lib/python3.11/secrets.py',
   'PYMODULE'),
  ('selectors',
   '/usr/local/Cellar/python@3.11/3.11.7_1/Frameworks/Python.framework/Versions/3.11/lib/python3.11/selectors.py',
   'PYMODULE'),
  ('shlex',
   '/usr/local/Cellar/python@3.11/3.11.7_1/Frameworks/Python.framework/Versions/3.11/lib/python3.11/shlex.py',
   'PYMODULE'),
  ('shutil',
   '/usr/local/Cellar/python@3.11/3.11.7_1/Frameworks/Python.framework/Versions/3.11/lib/python3.11/shutil.py',
   'PYMODULE'),
  ('signal',
   '/usr/local/Cellar/python@3.11/3.11.7_1/Frameworks/Python.framework/Versions/3.11/lib/python3.11/signal.py',
   'PYMODULE'),
  ('socket',
   '/usr/local/Cellar/python@3.11/3.11.7_1/Frameworks/Python.framework/Versions/3.11/lib/python3.11/socket.py',
   'PYMODULE'),
  ('socketserver',
   '/usr/local/Cellar/python@3.11/3.11.7_1/Frameworks/Python.framework/Versions/3.11/lib/python3.11/socketserver.py',
   'PYMODULE'),
  ('ssl',
   '/usr/local/Cellar/python@3.11/3.11.7_1/Frameworks/Python.framework/Versions/3.11/lib/python3.11/ssl.py',
   'PYMODULE'),
  ('statistics',
   '/usr/local/Cellar/python@3.11/3.11.7_1/Frameworks/Python.framework/Versions/3.11/lib/python3.11/statistics.py',
   'PYMODULE'),
  ('string',
   '/usr/local/Cellar/python@3.11/3.11.7_1/Frameworks/Python.framework/Versions/3.11/lib/python3.11/string.py',
   'PYMODULE'),
  ('stringprep',
   '/usr/local/Cellar/python@3.11/3.11.7_1/Frameworks/Python.framework/Versions/3.11/lib/python3.11/stringprep.py',
   'PYMODULE'),
  ('subprocess',
   '/usr/local/Cellar/python@3.11/3.11.7_1/Frameworks/Python.framework/Versions/3.11/lib/python3.11/subprocess.py',
   'PYMODULE'),
  ('sysconfig',
   '/usr/local/Cellar/python@3.11/3.11.7_1/Frameworks/Python.framework/Versions/3.11/lib/python3.11/sysconfig.py',
   'PYMODULE'),
  ('tarfile',
   '/usr/local/Cellar/python@3.11/3.11.7_1/Frameworks/Python.framework/Versions/3.11/lib/python3.11/tarfile.py',
   'PYMODULE'),
  ('tempfile',
   '/usr/local/Cellar/python@3.11/3.11.7_1/Frameworks/Python.framework/Versions/3.11/lib/python3.11/tempfile.py',
   'PYMODULE'),
  ('textwrap',
   '/usr/local/Cellar/python@3.11/3.11.7_1/Frameworks/Python.framework/Versions/3.11/lib/python3.11/textwrap.py',
   'PYMODULE'),
  ('threading',
   '/usr/local/Cellar/python@3.11/3.11.7_1/Frameworks/Python.framework/Versions/3.11/lib/python3.11/threading.py',
   'PYMODULE'),
  ('tkinter',
   '/usr/local/Cellar/python@3.11/3.11.7_1/Frameworks/Python.framework/Versions/3.11/lib/python3.11/tkinter/__init__.py',
   'PYMODULE'),
  ('tkinter.constants',
   '/usr/local/Cellar/python@3.11/3.11.7_1/Frameworks/Python.framework/Versions/3.11/lib/python3.11/tkinter/constants.py',
   'PYMODULE'),
  ('tkinter.ttk',
   '/usr/local/Cellar/python@3.11/3.11.7_1/Frameworks/Python.framework/Versions/3.11/lib/python3.11/tkinter/ttk.py',
   'PYMODULE'),
  ('token',
   '/usr/local/Cellar/python@3.11/3.11.7_1/Frameworks/Python.framework/Versions/3.11/lib/python3.11/token.py',
   'PYMODULE'),
  ('tokenize',
   '/usr/local/Cellar/python@3.11/3.11.7_1/Frameworks/Python.framework/Versions/3.11/lib/python3.11/tokenize.py',
   'PYMODULE'),
  ('tracemalloc',
   '/usr/local/Cellar/python@3.11/3.11.7_1/Frameworks/Python.framework/Versions/3.11/lib/python3.11/tracemalloc.py',
   'PYMODULE'),
  ('tty',
   '/usr/local/Cellar/python@3.11/3.11.7_1/Frameworks/Python.framework/Versions/3.11/lib/python3.11/tty.py',
   'PYMODULE'),
  ('typing',
   '/usr/local/Cellar/python@3.11/3.11.7_1/Frameworks/Python.framework/Versions/3.11/lib/python3.11/typing.py',
   'PYMODULE'),
  ('unittest',
   '/usr/local/Cellar/python@3.11/3.11.7_1/Frameworks/Python.framework/Versions/3.11/lib/python3.11/unittest/__init__.py',
   'PYMODULE'),
  ('unittest._log',
   '/usr/local/Cellar/python@3.11/3.11.7_1/Frameworks/Python.framework/Versions/3.11/lib/python3.11/unittest/_log.py',
   'PYMODULE'),
  ('unittest.async_case',
   '/usr/local/Cellar/python@3.11/3.11.7_1/Frameworks/Python.framework/Versions/3.11/lib/python3.11/unittest/async_case.py',
   'PYMODULE'),
  ('unittest.case',
   '/usr/local/Cellar/python@3.11/3.11.7_1/Frameworks/Python.framework/Versions/3.11/lib/python3.11/unittest/case.py',
   'PYMODULE'),
  ('unittest.loader',
   '/usr/local/Cellar/python@3.11/3.11.7_1/Frameworks/Python.framework/Versions/3.11/lib/python3.11/unittest/loader.py',
   'PYMODULE'),
  ('unittest.main',
   '/usr/local/Cellar/python@3.11/3.11.7_1/Frameworks/Python.framework/Versions/3.11/lib/python3.11/unittest/main.py',
   'PYMODULE'),
  ('unittest.result',
   '/usr/local/Cellar/python@3.11/3.11.7_1/Frameworks/Python.framework/Versions/3.11/lib/python3.11/unittest/result.py',
   'PYMODULE'),
  ('unittest.runner',
   '/usr/local/Cellar/python@3.11/3.11.7_1/Frameworks/Python.framework/Versions/3.11/lib/python3.11/unittest/runner.py',
   'PYMODULE'),
  ('unittest.signals',
   '/usr/local/Cellar/python@3.11/3.11.7_1/Frameworks/Python.framework/Versions/3.11/lib/python3.11/unittest/signals.py',
   'PYMODULE'),
  ('unittest.suite',
   '/usr/local/Cellar/python@3.11/3.11.7_1/Frameworks/Python.framework/Versions/3.11/lib/python3.11/unittest/suite.py',
   'PYMODULE'),
  ('unittest.util',
   '/usr/local/Cellar/python@3.11/3.11.7_1/Frameworks/Python.framework/Versions/3.11/lib/python3.11/unittest/util.py',
   'PYMODULE'),
  ('urllib',
   '/usr/local/Cellar/python@3.11/3.11.7_1/Frameworks/Python.framework/Versions/3.11/lib/python3.11/urllib/__init__.py',
   'PYMODULE'),
  ('urllib.error',
   '/usr/local/Cellar/python@3.11/3.11.7_1/Frameworks/Python.framework/Versions/3.11/lib/python3.11/urllib/error.py',
   'PYMODULE'),
  ('urllib.parse',
   '/usr/local/Cellar/python@3.11/3.11.7_1/Frameworks/Python.framework/Versions/3.11/lib/python3.11/urllib/parse.py',
   'PYMODULE'),
  ('urllib.request',
   '/usr/local/Cellar/python@3.11/3.11.7_1/Frameworks/Python.framework/Versions/3.11/lib/python3.11/urllib/request.py',
   'PYMODULE'),
  ('urllib.response',
   '/usr/local/Cellar/python@3.11/3.11.7_1/Frameworks/Python.framework/Versions/3.11/lib/python3.11/urllib/response.py',
   'PYMODULE'),
  ('webbrowser',
   '/usr/local/Cellar/python@3.11/3.11.7_1/Frameworks/Python.framework/Versions/3.11/lib/python3.11/webbrowser.py',
   'PYMODULE'),
  ('xml',
   '/usr/local/Cellar/python@3.11/3.11.7_1/Frameworks/Python.framework/Versions/3.11/lib/python3.11/xml/__init__.py',
   'PYMODULE'),
  ('xml.etree',
   '/usr/local/Cellar/python@3.11/3.11.7_1/Frameworks/Python.framework/Versions/3.11/lib/python3.11/xml/etree/__init__.py',
   'PYMODULE'),
  ('xml.etree.ElementInclude',
   '/usr/local/Cellar/python@3.11/3.11.7_1/Frameworks/Python.framework/Versions/3.11/lib/python3.11/xml/etree/ElementInclude.py',
   'PYMODULE'),
  ('xml.etree.ElementPath',
   '/usr/local/Cellar/python@3.11/3.11.7_1/Frameworks/Python.framework/Versions/3.11/lib/python3.11/xml/etree/ElementPath.py',
   'PYMODULE'),
  ('xml.etree.ElementTree',
   '/usr/local/Cellar/python@3.11/3.11.7_1/Frameworks/Python.framework/Versions/3.11/lib/python3.11/xml/etree/ElementTree.py',
   'PYMODULE'),
  ('xml.etree.cElementTree',
   '/usr/local/Cellar/python@3.11/3.11.7_1/Frameworks/Python.framework/Versions/3.11/lib/python3.11/xml/etree/cElementTree.py',
   'PYMODULE'),
  ('xml.parsers',
   '/usr/local/Cellar/python@3.11/3.11.7_1/Frameworks/Python.framework/Versions/3.11/lib/python3.11/xml/parsers/__init__.py',
   'PYMODULE'),
  ('xml.parsers.expat',
   '/usr/local/Cellar/python@3.11/3.11.7_1/Frameworks/Python.framework/Versions/3.11/lib/python3.11/xml/parsers/expat.py',
   'PYMODULE'),
  ('xml.sax',
   '/usr/local/Cellar/python@3.11/3.11.7_1/Frameworks/Python.framework/Versions/3.11/lib/python3.11/xml/sax/__init__.py',
   'PYMODULE'),
  ('xml.sax._exceptions',
   '/usr/local/Cellar/python@3.11/3.11.7_1/Frameworks/Python.framework/Versions/3.11/lib/python3.11/xml/sax/_exceptions.py',
   'PYMODULE'),
  ('xml.sax.expatreader',
   '/usr/local/Cellar/python@3.11/3.11.7_1/Frameworks/Python.framework/Versions/3.11/lib/python3.11/xml/sax/expatreader.py',
   'PYMODULE'),
  ('xml.sax.handler',
   '/usr/local/Cellar/python@3.11/3.11.7_1/Frameworks/Python.framework/Versions/3.11/lib/python3.11/xml/sax/handler.py',
   'PYMODULE'),
  ('xml.sax.saxutils',
   '/usr/local/Cellar/python@3.11/3.11.7_1/Frameworks/Python.framework/Versions/3.11/lib/python3.11/xml/sax/saxutils.py',
   'PYMODULE'),
  ('xml.sax.xmlreader',
   '/usr/local/Cellar/python@3.11/3.11.7_1/Frameworks/Python.framework/Versions/3.11/lib/python3.11/xml/sax/xmlreader.py',
   'PYMODULE'),
  ('xmlrpc',
   '/usr/local/Cellar/python@3.11/3.11.7_1/Frameworks/Python.framework/Versions/3.11/lib/python3.11/xmlrpc/__init__.py',
   'PYMODULE'),
  ('xmlrpc.client',
   '/usr/local/Cellar/python@3.11/3.11.7_1/Frameworks/Python.framework/Versions/3.11/lib/python3.11/xmlrpc/client.py',
   'PYMODULE'),
  ('zipfile',
   '/usr/local/Cellar/python@3.11/3.11.7_1/Frameworks/Python.framework/Versions/3.11/lib/python3.11/zipfile.py',
   'PYMODULE'),
  ('zipimport',
   '/usr/local/Cellar/python@3.11/3.11.7_1/Frameworks/Python.framework/Versions/3.11/lib/python3.11/zipimport.py',
   'PYMODULE')])
